*** Life<ConwayCell> 29x12 ***

Generation = 0, Population = 1.
............
............
............
............
............
............
............
............
............
............
............
............
............
............
............
............
............
............
............
............
............
............
............
............
............
............
........*...
............
............

Generation = 4, Population = 0.
............
............
............
............
............
............
............
............
............
............
............
............
............
............
............
............
............
............
............
............
............
............
............
............
............
............
............
............
............

Generation = 8, Population = 0.
............
............
............
............
............
............
............
............
............
............
............
............
............
............
............
............
............
............
............
............
............
............
............
............
............
............
............
............
............

Generation = 12, Population = 0.
............
............
............
............
............
............
............
............
............
............
............
............
............
............
............
............
............
............
............
............
............
............
............
............
............
............
............
............
............

Generation = 16, Population = 0.
............
............
............
............
............
............
............
............
............
............
............
............
............
............
............
............
............
............
............
............
............
............
............
............
............
............
............
............
............

*** Life<ConwayCell> 28x35 ***

Generation = 0, Population = 13.
...............*............*......
...................................
...................................
...................................
...................................
...................................
...................*........*.....*
...................................
.......................*...........
...................................
...................................
..........*...........*............
...................................
...................................
...................................
...................................
............................*......
...................................
...................................
...................................
............................*......
...................................
.....................*.........*...
...................................
...................................
.......................*...........
...................................
...................................

Generation = 2, Population = 0.
...................................
...................................
...................................
...................................
...................................
...................................
...................................
...................................
...................................
...................................
...................................
...................................
...................................
...................................
...................................
...................................
...................................
...................................
...................................
...................................
...................................
...................................
...................................
...................................
...................................
...................................
...................................
...................................

Generation = 4, Population = 0.
...................................
...................................
...................................
...................................
...................................
...................................
...................................
...................................
...................................
...................................
...................................
...................................
...................................
...................................
...................................
...................................
...................................
...................................
...................................
...................................
...................................
...................................
...................................
...................................
...................................
...................................
...................................
...................................

Generation = 6, Population = 0.
...................................
...................................
...................................
...................................
...................................
...................................
...................................
...................................
...................................
...................................
...................................
...................................
...................................
...................................
...................................
...................................
...................................
...................................
...................................
...................................
...................................
...................................
...................................
...................................
...................................
...................................
...................................
...................................

Generation = 8, Population = 0.
...................................
...................................
...................................
...................................
...................................
...................................
...................................
...................................
...................................
...................................
...................................
...................................
...................................
...................................
...................................
...................................
...................................
...................................
...................................
...................................
...................................
...................................
...................................
...................................
...................................
...................................
...................................
...................................

Generation = 10, Population = 0.
...................................
...................................
...................................
...................................
...................................
...................................
...................................
...................................
...................................
...................................
...................................
...................................
...................................
...................................
...................................
...................................
...................................
...................................
...................................
...................................
...................................
...................................
...................................
...................................
...................................
...................................
...................................
...................................

Generation = 12, Population = 0.
...................................
...................................
...................................
...................................
...................................
...................................
...................................
...................................
...................................
...................................
...................................
...................................
...................................
...................................
...................................
...................................
...................................
...................................
...................................
...................................
...................................
...................................
...................................
...................................
...................................
...................................
...................................
...................................

Generation = 14, Population = 0.
...................................
...................................
...................................
...................................
...................................
...................................
...................................
...................................
...................................
...................................
...................................
...................................
...................................
...................................
...................................
...................................
...................................
...................................
...................................
...................................
...................................
...................................
...................................
...................................
...................................
...................................
...................................
...................................

Generation = 16, Population = 0.
...................................
...................................
...................................
...................................
...................................
...................................
...................................
...................................
...................................
...................................
...................................
...................................
...................................
...................................
...................................
...................................
...................................
...................................
...................................
...................................
...................................
...................................
...................................
...................................
...................................
...................................
...................................
...................................

Generation = 18, Population = 0.
...................................
...................................
...................................
...................................
...................................
...................................
...................................
...................................
...................................
...................................
...................................
...................................
...................................
...................................
...................................
...................................
...................................
...................................
...................................
...................................
...................................
...................................
...................................
...................................
...................................
...................................
...................................
...................................

Generation = 20, Population = 0.
...................................
...................................
...................................
...................................
...................................
...................................
...................................
...................................
...................................
...................................
...................................
...................................
...................................
...................................
...................................
...................................
...................................
...................................
...................................
...................................
...................................
...................................
...................................
...................................
...................................
...................................
...................................
...................................

*** Life<ConwayCell> 31x46 ***

Generation = 0, Population = 25.
..........*...........................*.......
..............................................
..............................................
..............................................
..............................................
...........*..................................
..............................................
..............................................
..............*...............................
.................*...............*............
...*.........................*................
..............................................
......................*.......................
...............................*..............
...................*............*.............
.............*................................
..........................................*...
......................................*.......
.....................*........................
..............................................
..............................................
.......................................*......
..............................................
..........................*........*..........
...*..........................................
..............................................
...*.......*.................*............*...
..............................................
..............................................
..........................................*...
..............................................

Generation = 3, Population = 0.
..............................................
..............................................
..............................................
..............................................
..............................................
..............................................
..............................................
..............................................
..............................................
..............................................
..............................................
..............................................
..............................................
..............................................
..............................................
..............................................
..............................................
..............................................
..............................................
..............................................
..............................................
..............................................
..............................................
..............................................
..............................................
..............................................
..............................................
..............................................
..............................................
..............................................
..............................................

Generation = 6, Population = 0.
..............................................
..............................................
..............................................
..............................................
..............................................
..............................................
..............................................
..............................................
..............................................
..............................................
..............................................
..............................................
..............................................
..............................................
..............................................
..............................................
..............................................
..............................................
..............................................
..............................................
..............................................
..............................................
..............................................
..............................................
..............................................
..............................................
..............................................
..............................................
..............................................
..............................................
..............................................

Generation = 9, Population = 0.
..............................................
..............................................
..............................................
..............................................
..............................................
..............................................
..............................................
..............................................
..............................................
..............................................
..............................................
..............................................
..............................................
..............................................
..............................................
..............................................
..............................................
..............................................
..............................................
..............................................
..............................................
..............................................
..............................................
..............................................
..............................................
..............................................
..............................................
..............................................
..............................................
..............................................
..............................................

*** Life<ConwayCell> 29x3 ***

Generation = 0, Population = 13.
...
...
...
.*.
...
..*
...
...
.*.
...
*.*
...
**.
*..
...
...
**.
...
...
*..
.*.
*..
...
...
...
...
...
...
...

*** Life<ConwayCell> 6x24 ***

Generation = 0, Population = 7.
................*.......
..*.....................
...**....*..............
*...*...................
........................
........................

*** Life<ConwayCell> 16x49 ***

Generation = 0, Population = 17.
...................*............*................
.................................................
.............................................*...
.................................................
*...........................**...................
...........*.....................................
.................................................
....................................*...........*
.................................................
......................*...*.........*............
.................*...........................*...
.................................................
.................................................
.....*...........................................
......................*..........*...............
.................................................

Generation = 3, Population = 0.
.................................................
.................................................
.................................................
.................................................
.................................................
.................................................
.................................................
.................................................
.................................................
.................................................
.................................................
.................................................
.................................................
.................................................
.................................................
.................................................

Generation = 6, Population = 0.
.................................................
.................................................
.................................................
.................................................
.................................................
.................................................
.................................................
.................................................
.................................................
.................................................
.................................................
.................................................
.................................................
.................................................
.................................................
.................................................

Generation = 9, Population = 0.
.................................................
.................................................
.................................................
.................................................
.................................................
.................................................
.................................................
.................................................
.................................................
.................................................
.................................................
.................................................
.................................................
.................................................
.................................................
.................................................

*** Life<ConwayCell> 3x14 ***

Generation = 0, Population = 17.
.**..*....****
.*.*...*...*.*
*...*..*.*...*

Generation = 4, Population = 7.
........***...
........*.....
........*.**..

Generation = 8, Population = 3.
.......**.....
.......*......
..............

Generation = 12, Population = 4.
.......**.....
.......**.....
..............

Generation = 16, Population = 4.
.......**.....
.......**.....
..............

*** Life<ConwayCell> 17x19 ***

Generation = 0, Population = 1.
...................
...................
...................
...................
...................
...................
...................
...................
...................
...................
...................
...................
...................
...................
..............*....
...................
...................

Generation = 5, Population = 0.
...................
...................
...................
...................
...................
...................
...................
...................
...................
...................
...................
...................
...................
...................
...................
...................
...................

Generation = 10, Population = 0.
...................
...................
...................
...................
...................
...................
...................
...................
...................
...................
...................
...................
...................
...................
...................
...................
...................

*** Life<ConwayCell> 27x12 ***

Generation = 0, Population = 14.
....*.......
............
....**......
............
............
.*.......*..
............
....*.......
............
............
....*.......
.......*....
............
............
...*........
............
............
.....*......
............
............
............
...........*
..*.........
............
......*.....
...*........
............

Generation = 1, Population = 2.
............
....**......
............
............
............
............
............
............
............
............
............
............
............
............
............
............
............
............
............
............
............
............
............
............
............
............
............

Generation = 2, Population = 0.
............
............
............
............
............
............
............
............
............
............
............
............
............
............
............
............
............
............
............
............
............
............
............
............
............
............
............

Generation = 3, Population = 0.
............
............
............
............
............
............
............
............
............
............
............
............
............
............
............
............
............
............
............
............
............
............
............
............
............
............
............

*** Life<ConwayCell> 8x4 ***

Generation = 0, Population = 13.
**..
..*.
.*..
**.*
..*.
.*..
***.
...*

*** Life<ConwayCell> 26x33 ***

Generation = 0, Population = 5.
.................................
.................................
.................................
........................*........
............*....................
.................................
.................................
.................................
.................................
.................................
.................................
.................................
.................................
.................................
...............*.................
.................................
.................................
.................................
.................................
.................................
.....*...........................
.................................
.................................
.................................
.................................
..............................*..

Generation = 3, Population = 0.
.................................
.................................
.................................
.................................
.................................
.................................
.................................
.................................
.................................
.................................
.................................
.................................
.................................
.................................
.................................
.................................
.................................
.................................
.................................
.................................
.................................
.................................
.................................
.................................
.................................
.................................

Generation = 6, Population = 0.
.................................
.................................
.................................
.................................
.................................
.................................
.................................
.................................
.................................
.................................
.................................
.................................
.................................
.................................
.................................
.................................
.................................
.................................
.................................
.................................
.................................
.................................
.................................
.................................
.................................
.................................

Generation = 9, Population = 0.
.................................
.................................
.................................
.................................
.................................
.................................
.................................
.................................
.................................
.................................
.................................
.................................
.................................
.................................
.................................
.................................
.................................
.................................
.................................
.................................
.................................
.................................
.................................
.................................
.................................
.................................

Generation = 12, Population = 0.
.................................
.................................
.................................
.................................
.................................
.................................
.................................
.................................
.................................
.................................
.................................
.................................
.................................
.................................
.................................
.................................
.................................
.................................
.................................
.................................
.................................
.................................
.................................
.................................
.................................
.................................

Generation = 15, Population = 0.
.................................
.................................
.................................
.................................
.................................
.................................
.................................
.................................
.................................
.................................
.................................
.................................
.................................
.................................
.................................
.................................
.................................
.................................
.................................
.................................
.................................
.................................
.................................
.................................
.................................
.................................

*** Life<ConwayCell> 26x24 ***

Generation = 0, Population = 20.
........................
.....*..................
......................*.
......*.................
..............*.........
..............*....*....
........................
.................*......
.........*..............
.....*..................
........................
...................*....
........................
...*......*.............
........................
......................*.
........................
........................
.............*..........
................*.......
...................*....
.......................*
......*.................
........................
.........*........*.....
........................

Generation = 2, Population = 0.
........................
........................
........................
........................
........................
........................
........................
........................
........................
........................
........................
........................
........................
........................
........................
........................
........................
........................
........................
........................
........................
........................
........................
........................
........................
........................

Generation = 4, Population = 0.
........................
........................
........................
........................
........................
........................
........................
........................
........................
........................
........................
........................
........................
........................
........................
........................
........................
........................
........................
........................
........................
........................
........................
........................
........................
........................

*** Life<ConwayCell> 24x17 ***

Generation = 0, Population = 27.
.................
.................
........**...*...
.................
*................
...*.............
..*..........*...
.................
.................
.........**......
......*.....*....
...........*....*
.................
.................
*.............*.*
.........*.......
*................
...........*.....
.....*.*.........
....*...........*
................*
........*........
.................
*....*...........

Generation = 3, Population = 0.
.................
.................
.................
.................
.................
.................
.................
.................
.................
.................
.................
.................
.................
.................
.................
.................
.................
.................
.................
.................
.................
.................
.................
.................

Generation = 6, Population = 0.
.................
.................
.................
.................
.................
.................
.................
.................
.................
.................
.................
.................
.................
.................
.................
.................
.................
.................
.................
.................
.................
.................
.................
.................

*** Life<ConwayCell> 28x1 ***

Generation = 0, Population = 2.
.
.
.
.
.
*
.
.
.
.
.
.
*
.
.
.
.
.
.
.
.
.
.
.
.
.
.
.

Generation = 3, Population = 0.
.
.
.
.
.
.
.
.
.
.
.
.
.
.
.
.
.
.
.
.
.
.
.
.
.
.
.
.

*** Life<ConwayCell> 37x41 ***

Generation = 0, Population = 11.
.........................................
.........................................
........................*................
.........................................
.........................................
.........................................
.........................................
.........................................
.....................*...................
.........................................
.........................................
.........................................
.......................................*.
.........................................
.........................................
................*........................
................*........................
................................*........
...............................*.........
.........................................
...............................*.....*...
.........................................
.........................................
.........................................
.........................................
.........................................
.........................................
.........................................
.........................................
.....*...................................
.........................................
.........................................
...............*.........................
.........................................
.........................................
.........................................
.........................................

Generation = 2, Population = 0.
.........................................
.........................................
.........................................
.........................................
.........................................
.........................................
.........................................
.........................................
.........................................
.........................................
.........................................
.........................................
.........................................
.........................................
.........................................
.........................................
.........................................
.........................................
.........................................
.........................................
.........................................
.........................................
.........................................
.........................................
.........................................
.........................................
.........................................
.........................................
.........................................
.........................................
.........................................
.........................................
.........................................
.........................................
.........................................
.........................................
.........................................

Generation = 4, Population = 0.
.........................................
.........................................
.........................................
.........................................
.........................................
.........................................
.........................................
.........................................
.........................................
.........................................
.........................................
.........................................
.........................................
.........................................
.........................................
.........................................
.........................................
.........................................
.........................................
.........................................
.........................................
.........................................
.........................................
.........................................
.........................................
.........................................
.........................................
.........................................
.........................................
.........................................
.........................................
.........................................
.........................................
.........................................
.........................................
.........................................
.........................................

*** Life<ConwayCell> 35x45 ***

Generation = 0, Population = 36.
...*.........................................
......*......................................
.....................*.......................
.............................................
.............................................
.......................*.....*......*........
............*.........*......................
.............................................
............................*................
.............................................
.............................................
.............................................
.............................................
..................................*..........
..........*..................................
.............................................
.....................*.......................
.......*...............*....................*
....................................*........
......*.............*........................
..................................*..........
..*.............*............................
................*................*...........
.......................*.....................
.............................................
.............*...........*...................
.............................................
*............................................
..............................*..............
......*.*....................................
......................................*......
.............................................
......................*.....................*
..*...........*.........................*....
.............................................

*** Life<ConwayCell> 23x29 ***

Generation = 0, Population = 1.
...............*.............
.............................
.............................
.............................
.............................
.............................
.............................
.............................
.............................
.............................
.............................
.............................
.............................
.............................
.............................
.............................
.............................
.............................
.............................
.............................
.............................
.............................
.............................

Generation = 3, Population = 0.
.............................
.............................
.............................
.............................
.............................
.............................
.............................
.............................
.............................
.............................
.............................
.............................
.............................
.............................
.............................
.............................
.............................
.............................
.............................
.............................
.............................
.............................
.............................

Generation = 6, Population = 0.
.............................
.............................
.............................
.............................
.............................
.............................
.............................
.............................
.............................
.............................
.............................
.............................
.............................
.............................
.............................
.............................
.............................
.............................
.............................
.............................
.............................
.............................
.............................

Generation = 9, Population = 0.
.............................
.............................
.............................
.............................
.............................
.............................
.............................
.............................
.............................
.............................
.............................
.............................
.............................
.............................
.............................
.............................
.............................
.............................
.............................
.............................
.............................
.............................
.............................

*** Life<ConwayCell> 15x30 ***

Generation = 0, Population = 6.
..............................
..............................
..............................
.......*......................
..............................
..............................
........................*.....
..............................
..............................
..............................
...........*..................
..............................
..............................
......*........*..............
............................*.

Generation = 5, Population = 0.
..............................
..............................
..............................
..............................
..............................
..............................
..............................
..............................
..............................
..............................
..............................
..............................
..............................
..............................
..............................

Generation = 10, Population = 0.
..............................
..............................
..............................
..............................
..............................
..............................
..............................
..............................
..............................
..............................
..............................
..............................
..............................
..............................
..............................

Generation = 15, Population = 0.
..............................
..............................
..............................
..............................
..............................
..............................
..............................
..............................
..............................
..............................
..............................
..............................
..............................
..............................
..............................

*** Life<ConwayCell> 20x29 ***

Generation = 0, Population = 3.
.............................
.............................
.............................
.............................
.............................
.............................
.............................
.............................
.............................
.......*.....................
.............................
.............................
.......*.....................
.............................
.............................
.............................
.............................
.*...........................
.............................
.............................

Generation = 5, Population = 0.
.............................
.............................
.............................
.............................
.............................
.............................
.............................
.............................
.............................
.............................
.............................
.............................
.............................
.............................
.............................
.............................
.............................
.............................
.............................
.............................

*** Life<ConwayCell> 6x12 ***

Generation = 0, Population = 32.
.**.*..*.*..
.**.*.****..
...**....*..
..***.*...**
*.**.*.**.**
...*.....*.*

*** Life<ConwayCell> 21x37 ***

Generation = 0, Population = 3.
.....................................
...................................*.
.....................................
.....................................
.....................................
.....................................
.....................................
.....................................
.....................................
.....................................
.....................................
.....................................
.........*...........................
...........................*.........
.....................................
.....................................
.....................................
.....................................
.....................................
.....................................
.....................................

Generation = 5, Population = 0.
.....................................
.....................................
.....................................
.....................................
.....................................
.....................................
.....................................
.....................................
.....................................
.....................................
.....................................
.....................................
.....................................
.....................................
.....................................
.....................................
.....................................
.....................................
.....................................
.....................................
.....................................

Generation = 10, Population = 0.
.....................................
.....................................
.....................................
.....................................
.....................................
.....................................
.....................................
.....................................
.....................................
.....................................
.....................................
.....................................
.....................................
.....................................
.....................................
.....................................
.....................................
.....................................
.....................................
.....................................
.....................................

*** Life<ConwayCell> 40x20 ***

Generation = 0, Population = 32.
....................
..................*.
......*.............
....................
*...................
....*....*..........
....................
...........**.......
....................
..**................
....................
....................
.....*..............
.....*..............
....................
....................
....................
................*...
.............*......
....................
.............*......
..*.................
..**................
............*.......
.........*....*.....
....................
....................
........*...*.......
....................
....*..............*
....................
...................*
.............*......
................*...
....................
*............*......
....*...............
....................
......*.............
...................*

Generation = 1, Population = 4.
....................
....................
....................
....................
....................
....................
....................
....................
....................
....................
....................
....................
....................
....................
....................
....................
....................
....................
....................
....................
....................
..**................
..**................
....................
....................
....................
....................
....................
....................
....................
....................
....................
....................
....................
....................
....................
....................
....................
....................
....................

Generation = 2, Population = 4.
....................
....................
....................
....................
....................
....................
....................
....................
....................
....................
....................
....................
....................
....................
....................
....................
....................
....................
....................
....................
....................
..**................
..**................
....................
....................
....................
....................
....................
....................
....................
....................
....................
....................
....................
....................
....................
....................
....................
....................
....................

Generation = 3, Population = 4.
....................
....................
....................
....................
....................
....................
....................
....................
....................
....................
....................
....................
....................
....................
....................
....................
....................
....................
....................
....................
....................
..**................
..**................
....................
....................
....................
....................
....................
....................
....................
....................
....................
....................
....................
....................
....................
....................
....................
....................
....................

Generation = 4, Population = 4.
....................
....................
....................
....................
....................
....................
....................
....................
....................
....................
....................
....................
....................
....................
....................
....................
....................
....................
....................
....................
....................
..**................
..**................
....................
....................
....................
....................
....................
....................
....................
....................
....................
....................
....................
....................
....................
....................
....................
....................
....................

Generation = 5, Population = 4.
....................
....................
....................
....................
....................
....................
....................
....................
....................
....................
....................
....................
....................
....................
....................
....................
....................
....................
....................
....................
....................
..**................
..**................
....................
....................
....................
....................
....................
....................
....................
....................
....................
....................
....................
....................
....................
....................
....................
....................
....................

Generation = 6, Population = 4.
....................
....................
....................
....................
....................
....................
....................
....................
....................
....................
....................
....................
....................
....................
....................
....................
....................
....................
....................
....................
....................
..**................
..**................
....................
....................
....................
....................
....................
....................
....................
....................
....................
....................
....................
....................
....................
....................
....................
....................
....................

Generation = 7, Population = 4.
....................
....................
....................
....................
....................
....................
....................
....................
....................
....................
....................
....................
....................
....................
....................
....................
....................
....................
....................
....................
....................
..**................
..**................
....................
....................
....................
....................
....................
....................
....................
....................
....................
....................
....................
....................
....................
....................
....................
....................
....................

Generation = 8, Population = 4.
....................
....................
....................
....................
....................
....................
....................
....................
....................
....................
....................
....................
....................
....................
....................
....................
....................
....................
....................
....................
....................
..**................
..**................
....................
....................
....................
....................
....................
....................
....................
....................
....................
....................
....................
....................
....................
....................
....................
....................
....................

Generation = 9, Population = 4.
....................
....................
....................
....................
....................
....................
....................
....................
....................
....................
....................
....................
....................
....................
....................
....................
....................
....................
....................
....................
....................
..**................
..**................
....................
....................
....................
....................
....................
....................
....................
....................
....................
....................
....................
....................
....................
....................
....................
....................
....................

Generation = 10, Population = 4.
....................
....................
....................
....................
....................
....................
....................
....................
....................
....................
....................
....................
....................
....................
....................
....................
....................
....................
....................
....................
....................
..**................
..**................
....................
....................
....................
....................
....................
....................
....................
....................
....................
....................
....................
....................
....................
....................
....................
....................
....................

Generation = 11, Population = 4.
....................
....................
....................
....................
....................
....................
....................
....................
....................
....................
....................
....................
....................
....................
....................
....................
....................
....................
....................
....................
....................
..**................
..**................
....................
....................
....................
....................
....................
....................
....................
....................
....................
....................
....................
....................
....................
....................
....................
....................
....................

Generation = 12, Population = 4.
....................
....................
....................
....................
....................
....................
....................
....................
....................
....................
....................
....................
....................
....................
....................
....................
....................
....................
....................
....................
....................
..**................
..**................
....................
....................
....................
....................
....................
....................
....................
....................
....................
....................
....................
....................
....................
....................
....................
....................
....................

Generation = 13, Population = 4.
....................
....................
....................
....................
....................
....................
....................
....................
....................
....................
....................
....................
....................
....................
....................
....................
....................
....................
....................
....................
....................
..**................
..**................
....................
....................
....................
....................
....................
....................
....................
....................
....................
....................
....................
....................
....................
....................
....................
....................
....................

Generation = 14, Population = 4.
....................
....................
....................
....................
....................
....................
....................
....................
....................
....................
....................
....................
....................
....................
....................
....................
....................
....................
....................
....................
....................
..**................
..**................
....................
....................
....................
....................
....................
....................
....................
....................
....................
....................
....................
....................
....................
....................
....................
....................
....................

*** Life<ConwayCell> 21x47 ***

Generation = 0, Population = 38.
...**.....*....................................
...................**....*................*....
.........................*.................*...
......*..................*.....................
...............................*...*...........
..............................................*
...*...........................................
...............................................
.......................*.......................
.................*.............................
..........*.............*.....................*
...........................*...................
.*...........*....................*............
..............................*................
...**..........................................
.................*.............................
......................*.*......................
...........*.*....................*............
..............................*..*...........*.
.....................*..*......................
...............................................

*** Life<ConwayCell> 37x15 ***

Generation = 0, Population = 35.
.*.....*.......
...............
....*..*.......
...............
..........*....
...............
...............
...............
...............
............*..
*..............
...............
...*..*........
.......*.......
..*........*...
...*..........*
.............*.
.*.............
...............
....*..........
..*............
........*....*.
..*............
.............*.
...............
.*.*...*.......
.........*.*...
...............
...............
..........*....
.........*.....
...............
...........*...
*.....*........
.......*.......
*..............
..*............

Generation = 2, Population = 0.
...............
...............
...............
...............
...............
...............
...............
...............
...............
...............
...............
...............
...............
...............
...............
...............
...............
...............
...............
...............
...............
...............
...............
...............
...............
...............
...............
...............
...............
...............
...............
...............
...............
...............
...............
...............
...............

Generation = 4, Population = 0.
...............
...............
...............
...............
...............
...............
...............
...............
...............
...............
...............
...............
...............
...............
...............
...............
...............
...............
...............
...............
...............
...............
...............
...............
...............
...............
...............
...............
...............
...............
...............
...............
...............
...............
...............
...............
...............

*** Life<ConwayCell> 30x24 ***

Generation = 0, Population = 31.
*..............*........
....*.............*.....
............*...........
........................
.*....*..*...*..........
.........*.............*
........................
.......................*
..............*.........
................*.......
..............*.........
........................
........................
......................*.
........................
...................*....
*...........*....*......
.....*..................
.......*............*...
.............*.....*....
...*................*...
........................
........................
........................
...........*.......*....
........*...............
......*.................
........................
........................
........................

Generation = 2, Population = 0.
........................
........................
........................
........................
........................
........................
........................
........................
........................
........................
........................
........................
........................
........................
........................
........................
........................
........................
........................
........................
........................
........................
........................
........................
........................
........................
........................
........................
........................
........................

Generation = 4, Population = 0.
........................
........................
........................
........................
........................
........................
........................
........................
........................
........................
........................
........................
........................
........................
........................
........................
........................
........................
........................
........................
........................
........................
........................
........................
........................
........................
........................
........................
........................
........................

Generation = 6, Population = 0.
........................
........................
........................
........................
........................
........................
........................
........................
........................
........................
........................
........................
........................
........................
........................
........................
........................
........................
........................
........................
........................
........................
........................
........................
........................
........................
........................
........................
........................
........................

*** Life<ConwayCell> 24x17 ***

Generation = 0, Population = 8.
.................
...............*.
.....*...........
.................
.................
.................
.................
.................
*................
.................
...*.........*...
.................
.................
.................
.................
.................
.................
.................
.................
.............*...
..........*......
...............*.
.................
.................

Generation = 4, Population = 0.
.................
.................
.................
.................
.................
.................
.................
.................
.................
.................
.................
.................
.................
.................
.................
.................
.................
.................
.................
.................
.................
.................
.................
.................

*** Life<ConwayCell> 31x39 ***

Generation = 0, Population = 30.
.......................................
.....*.................................
.*..............................*......
............*................*.........
.........*................*............
.......................................
.......................................
.......................................
.......................*...............
.......*.*................*............
..............*.................*......
......................................*
.........*...........*...........*.....
.......................................
.......................................
.....................*.................
.......................................
.......................................
.......................................
.........*.............................
................................*......
.......................................
.......................................
........................*..............
.....................*....*............
....*..*...............*...............
.......................................
.....*...*.................*...........
.......................................
.......................................
.........................*.............

Generation = 2, Population = 0.
.......................................
.......................................
.......................................
.......................................
.......................................
.......................................
.......................................
.......................................
.......................................
.......................................
.......................................
.......................................
.......................................
.......................................
.......................................
.......................................
.......................................
.......................................
.......................................
.......................................
.......................................
.......................................
.......................................
.......................................
.......................................
.......................................
.......................................
.......................................
.......................................
.......................................
.......................................

Generation = 4, Population = 0.
.......................................
.......................................
.......................................
.......................................
.......................................
.......................................
.......................................
.......................................
.......................................
.......................................
.......................................
.......................................
.......................................
.......................................
.......................................
.......................................
.......................................
.......................................
.......................................
.......................................
.......................................
.......................................
.......................................
.......................................
.......................................
.......................................
.......................................
.......................................
.......................................
.......................................
.......................................
