*** Life<Cell> 15x9 ***

Generation = 0, Population = 28.
----0--0-
-----0---
------0-0
-----0---
0--------
---------
--0-0--0-
------0--
---0--00-
--0--0--0
---------
-0000---0
-------00
00--0----
--------0

Generation = 2, Population = 52.
--0-00-01
---0-0-1-
0-----00-
---0-0-0-
0---0-000
-----00--
--0001-0-
--1-11---
-00----*0
010----0-
---1--0-0
---0-----
-----01--
**1-0-0-0
------010

Generation = 4, Population = 48.
---1--00.
-0---*---
----0-*-1
-0----0--
--00--0--
--1-----1
---0-.-0-
-0-111-0-
0-*1--1.*
-.-----*-
--0.1--10
-1--*100*
11--0---1
...------
11--1-010

Generation = 6, Population = 75.
-1-1-0--*
-0--0.-*1
----01.1-
-00111---
00-*11**-
0-.1---01
01--1.1-0
-0-*-**--
--.1001.*
**0--0-*1
0-0..00*-
-*0*.1-**
.111--*-*
*..-00111
.*-110*1-

Generation = 8, Population = 57.
-.-1*-*1.
-*---.-.-
0-10*-.*1
--0.-*0--
---.....1
0-..11-01
-11*-..**
--1*1.**0
1-.1---..
**---0-.-
*0-..*0.1
-*0.**0..
.-.-1-.1.
.**10--.1
..0*.-*1-

Generation = 10, Population = 53.
-.1..0**.
0*-0-*-.*
---0*-..*
-1-.1.---
10-...**.
0-...*00.
-**.-....
1-1.*.**-
.0*.--**.
.*11---.-
.*0..*0.-
0*-*..0..
.-.-1-*1.
..*.0--*-
..0.*-..1

Generation = 12, Population = 55.
-.-.*0**.
*.1-**-*.
1--0.-..*
-.-.**-11
10-.....*
--..***-.
1.***....
--1.....1
.0.*--...
..1*-*0*1
*.0...0.-
*.*...0..
*-.1*1*-.
.***-*1.1
..-..**.-

Generation = 14, Population = 65.
-*****.**
..1*.*1.*
*110.-*..
0.-...1**
*--.***.*
-1..**.-.
-...*....
-1*.....1
.-*.11..*
..1*0.*.*
..0***0.*
.*....0**
*-.1.*.*.
.**.-...1
.**.*.***

*** Life<Cell> 9x14 ***

Generation = 0, Population = 3.
--------------
--------------
--------------
--------------
--------------
--------0-----
------------00
--------------
--------------

Generation = 2, Population = 11.
--------------
--------------
--------------
--------0-----
------------00
------0---0---
----------01-*
--------0-----
------------00

Generation = 4, Population = 10.
--------------
--------0-----
------------00
--------------
--------------
----0-------1-
--------11-.1.
--------------
------------**

Generation = 6, Population = 26.
------------00
------0---0---
----------01-*
----0---0---1-
--------00---1
--0---0---11.1
------01..1...
----0------0--
--------000-..

Generation = 8, Population = 22.
------------**
--------0-----
-----------.-*
-----------0-1
----------011*
0----------..*
----11-...*...
--------1-1-10
---------0*0..

Generation = 10, Population = 35.
----------0-..
------0---1-10
-----------.-*
0-------10----
----00--0*-*1*
0-0-------1..*
--01..1.*..*..
0-----0---11.-
----00-01-.*.*

Generation = 12, Population = 47.
--------0-*1..
0---0---01.0*-
----00--111.1*
-------1--1**1
------1-0.-.1*
--*--1*0-01..*
01-....***.*.*
-----0-0-1...-
----*-1-**..*.

Generation = 14, Population = 48.
----100-*-.-..
0--------1*-.-
--01--1-1*1...
0-0-1-01---...
00---1*00.1.-.
1-*1-**--0.**.
*.0..*........
--00-0*--1..**
000-.-1-*.....

Generation = 16, Population = 45.
----.0-0.-.1..
----*-0-*-.1.-
---.0*.-..1...
--*1----*-1...
---111***.1**.
--.*0..00-....
.*-.......***.
00**00**1-....
-000.1*-......

Generation = 18, Population = 43.
---0.0--.0.*..
---1*---.*..*-
--1.0**0*..*..
11*1*0*-.01*..
--0.*-.*..1...
--.*-..-01....
*.-......*....
*-..0-..*-....
10-0.1.1*.....

Generation = 20, Population = 40.
-01*.-*-*-***.
0--1*111.*...1
1-..-..0.....*
*1.-.-.*.*....
---..-**......
*0..0..--1**..
..-....*.*....
.-..0-.*.-....
--10.1.**.....

Generation = 22, Population = 39.
---..0*-**..*.
----*1*-......
-0..-**0..*...
...-*-.**.....
1--..*...*....
.-..-**0--*...
..-....*.**...
.0.*--**.*....
1****-***.....

Generation = 24, Population = 38.
-1-**-.0......
---**1.1**....
--*.-..-......
...*.-**.*....
1-1....*......
.1..-.*0*-....
..-..**....*..
*-.*0**.*.*...
**.**1...*....

Generation = 26, Population = 40.
--1..-**......
-1-*...1*.....
11..*..0.*....
*..*.-***.....
1*-.**...*....
.1..0..*.-....
..0**.*.......
*1..*..*..*...
*...*1..***...

Generation = 28, Population = 36.
-11..1***.....
1.-*.*.*......
-1..*.*-......
.*...-*.*.....
-.*.**.**.....
*...-.**.-....
..**.....*....
..*.*.....*...
*.*..**.*.*...

Generation = 30, Population = 29.
0.**.1.**.....
-.0.**..*.....
1*..*..0......
....*1*.......
*.......**....
....1****-....
..............
.....*........
..**.*........

Generation = 32, Population = 38.
0********.....
1.****..*.....
*.*..**0*.....
**...-.***....
....*....*....
....***..-....
...**..**.....
...***........
..............

Generation = 34, Population = 17.
-......**.....
1.............
*.....*-*.....
**..**.*......
.........**...
.....*...-....
.......*......
....*.........
....*.........

Generation = 36, Population = 14.
1.............
**....**......
*....*.-.*....
**......*.....
....*....*....
.....*...-....
..............
..............
..............

Generation = 38, Population = 12.
**............
**....*.......
......*-**....
........**....
........**....
.........-....
..............
..............
..............

Generation = 40, Population = 13.
**............
**......*.....
.......-**....
..........*...
........***...
........**....
..............
..............
..............

Generation = 42, Population = 12.
**............
**.....*.*....
.......*..*...
.......*..*...
..........**..
..............
..............
..............
..............

*** Life<Cell> 16x1 ***

Generation = 0, Population = 11.
0
0
-
0
-
0
-
0
0
0
0
0
-
0
0
-

*** Life<Cell> 5x17 ***

Generation = 0, Population = 26.
00------0-0--0-00
00-----------0-0-
-------00-000----
-00-0-0--0--0--0-
---0------00-----

Generation = 4, Population = 42.
-010-101*1-011-1-
0-1-*1---0-1*.1--
1---1-*1----0-0--
0...1----1.110--0
1*----1*---*100-0

Generation = 8, Population = 37.
--*.11-*.--*.*1--
.-.*.1.1--*-*..-0
-*11-1*.*--1-.**1
-*...101--*1*-.1.
1.1--1.*--...1-0.

Generation = 12, Population = 36.
*...***..--*.*.-*
*1.*...*0-.*.*.*.
..1**..**--.0*..*
-....**1.-...1.*.
**--1..*11...-11.

Generation = 16, Population = 16.
.........*0....-.
.....***-**......
....*....-1*1....
...*..*..*.......
..-*-*..-....-.-.

Generation = 20, Population = 15.
..........-....-.
...**...-*.......
......**..1......
......**....*....
..-**...****.-.-.

Generation = 24, Population = 13.
..........-....-.
.......**........
.....*.***-......
.....*.....*.....
..-...*****..-.-.

Generation = 28, Population = 10.
.........**....-.
......**...*.....
.....*.....*.....
......*...*......
..-....*.....-.-.

Generation = 32, Population = 8.
...............-.
......*...**.....
.....*.*..**.....
......*..........
..-..........-.-.

*** Life<Cell> 19x4 ***

Generation = 0, Population = 19.
--0-
-0-0
----
--0-
----
--0-
---0
----
-0--
----
-0--
--00
00--
0---
0-0-
----
--0-
--0-
00--

Generation = 3, Population = 40.
-010
-1*0
00--
1-1-
-001
---0
0-0-
----
0-00
0-1-
----
-*-*
-*--
1001
*1-0
--10
1-*0
*010
-.--

Generation = 6, Population = 42.
01.1
-*.-
-01*
*-*1
1-.-
**-*
1110
----
*-0*
11.-
*0-*
-.**
-.0-
*--1
**01
-1-*
**.*
.0.-
-.*-

Generation = 9, Population = 35.
11.*
-..-
1-..
...-
**.-
....
**1-
--01
*-*.
*-.1
.-**
-...
*.*.
*10*
*.1*
-*.*
.*.*
.1.-
****

Generation = 12, Population = 31.
***.
-**-
1-..
**.-
**.-
.*..
..--
-0-*
.1*.
..*.
.**.
1...
*.*.
.*1.
..1.
*...
*..*
*1*1
....

Generation = 15, Population = 26.
..**
0*.-
.-**
...1
.*.-
.**.
..-0
-1**
.-.*
.*.*
.*..
....
....
....
....
*...
*..*
**.1
*.*.

Generation = 18, Population = 23.
***.
*..*
.0**
...*
....
***.
*.-1
*...
*-*.
....
....
....
....
....
....
....
.**.
*.*.
.**.

Generation = 21, Population = 21.
***.
*..*
.1.*
...*
*..*
*.**
..*1
....
.-..
....
....
....
....
....
....
....
.**.
*..*
.**.

Generation = 24, Population = 17.
***.
*..*
.1**
...*
..*.
..*.
...-
....
.-..
....
....
....
....
....
....
....
.**.
*..*
.**.

Generation = 27, Population = 18.
***.
...*
**.*
**.*
..**
....
...-
....
.-..
....
....
....
....
....
....
....
.**.
*..*
.**.

Generation = 30, Population = 18.
....
*..*
**.*
*..*
.*.*
.***
...-
....
.-..
....
....
....
....
....
....
....
.**.
*..*
.**.

Generation = 33, Population = 19.
.*..
.**.
..**
...*
**.*
*..*
.**-
....
.-..
....
....
....
....
....
....
....
.**.
*..*
.**.

Generation = 36, Population = 19.
***.
...*
...*
...*
**.*
*..*
.**-
....
.-..
....
....
....
....
....
....
....
.**.
*..*
.**.

Generation = 39, Population = 21.
.**.
.*.*
...*
**.*
**.*
*..*
.**-
....
.-..
....
....
....
....
....
....
....
.**.
*..*
.**.

Generation = 42, Population = 16.
..*.
...*
...*
**.*
...*
...*
.**-
....
.-..
....
....
....
....
....
....
....
.**.
*..*
.**.

Generation = 45, Population = 12.
....
..**
....
....
.*..
..**
...1
....
.-..
....
....
....
....
....
....
....
.**.
*..*
.**.

Generation = 48, Population = 9.
....
....
....
....
..*.
.*..
..*.
....
.-..
....
....
....
....
....
....
....
.**.
*..*
.**.

Generation = 51, Population = 6.
....
....
....
....
....
....
....
....
.-..
....
....
....
....
....
....
....
.**.
*..*
.**.

*** Life<Cell> 4x2 ***

Generation = 0, Population = 7.
-0
00
00
00

Generation = 4, Population = 3.
-.
0-
*1
--

Generation = 8, Population = 1.
..
-1
..
--

Generation = 12, Population = 1.
..
-1
..
--

*** Life<Cell> 18x20 ***

Generation = 0, Population = 17.
--------------------
---------------0---0
--0-----------------
--------------------
--------0--0--------
-----------0--------
--------------------
--0-----------------
------------0-0-----
--------------------
--------------------
--------------------
00------------------
------0-------------
----0---------------
---00---------------
-------------------0
-----------------0--

Generation = 5, Population = 138.
-0-0---0-00-0----0--
0-0---0-0--0----0-0-
-00--0-0---------0--
00-00-00---.--00----
--10-00*0-.--1**0--0
--1-0-010-----00--0-
00-0--00-----------0
1-0--0-0--01----0-0-
-10------01-0--0---0
00--00-0---10---0-0-
--0-100----0--------
--*-*-------0-0----0
.-.-**0---00---0-00-
0--100--00-00-0-0-00
.10-----*00---------
----0-01-0-----00.00
-*0-*0000----00--*-.
000*---0----0-00-1-.

Generation = 10, Population = 145.
----0---1-------0---
--.--0---0-00101---0
-0-1-10*--1-1-*----0
--*1-11*001.1--.1---
1..00.*.1..*.*...1-0
11.*--.--.0*0..-0---
-111110.-0-11-----0-
*111*0-.0--.-000-0-1
1---*-0-1--1.---00-0
1---.-----0--1-0-0-*
.*.0..*--0-.------1-
--*-**--0-11--0-1.11
.*.*...---..*0-0-.-.
--**.*-*011.-1--1***
.**-.-.1.01-.--.-*-0
---.*-1-1-10**....-*
-.-..-.-10-1.-*.1.1*
.-.**1-1-0--1-1.-*1.

Generation = 15, Population = 157.
0*---.-.-11-***001-1
--.*0*-.-1-*1*..---.
**...**.*1.---*1*---
-**.---.**...-*.1-11
......**...*....*---
-...1*.--**.0..-0*.*
-..1***.-*.--0.0*00*
.....0*..10*0.0.0.-*
***0.1*1.*--.-****-1
*-00.0-0*0---1-.1..*
...1*..*--0*-***--..
-*.-..--01..*-1*-**.
*.......--*.*0.1..0.
--.*.*..-..**.1***..
**.-*.*..*.-*-*.-*1-
*1**.1.-.-1**.***.-.
**0.*-.0-0-*.*..*.-.
.-....***1---****.-.

*** Life<Cell> 3x7 ***

Generation = 0, Population = 14.
-000-0-
-0-0000
00--000

Generation = 4, Population = 9.
1----*-
1-*0.-1
1---0-0

Generation = 8, Population = 9.
.0-.1**
-0.-*1*
.-.--1.

Generation = 12, Population = 8.
.*..1..
...*.*.
.**1-*.

Generation = 16, Population = 1.
....-..
.......
...-1..

Generation = 20, Population = 1.
....-..
.......
...-1..

*** Life<Cell> 14x20 ***

Generation = 0, Population = 20.
-----0----------0---
-------------------0
--------0---------0-
------0-------------
-------0--0--0------
---------------0----
------0----0----0---
-----0---0----------
----0--0------------
--------------------
--0-----------------
--------------------
--------------------
-----0------0-------

Generation = 2, Population = 54.
---0-0-00-----0-0---
------0----------0-0
-----011-----0------
----0---1------0---0
-----00--1--1--10-0-
-----01--0---1---0--
--------011---0---0-
---0-------1---0----
-----0---1-0----0---
-----0---0----------
0------0------------
-----0------0-------
--0-----------------
---0-0-0--0-0-0-----

Generation = 4, Population = 63.
-0-----**10-01----0-
-----------------0-0
----0*..---01-1---0-
--0--1---00---------
---00001-.-1--1-*1--
-----------0--------
-------1***-0--0--0-
-0---10--0-.-0------
0--1---01.0*-0------
-----*------0--0----
0----------0----0---
---------0--0-------
----0--1------------
-0------11------0---

Generation = 6, Population = 111.
-0-00--.*1*0*.-00---
--0---11111----0-0--
-01--...0--*.---000-
0--0110-**--1---11-0
-00*-*0.1.-.*1-1..10
-00---*-1-0-----1---
0---0--....-0-------
----1.----1.--------
-01---0*..-.-*--0-0-
-0-1-.11--1-0-1--0--
--000---0110--0---0-
-0---0-110100-001---
0-0--11--0-0----1---
-0-0--00.*100-0-0-0-

Generation = 8, Population = 103.
-0--*1-...*0.*10----
---011*11*--1--*0---
0-10*.*.--0..-10----
0--01*-0*.--.-----0-
--*.1.*.-.-..*1-.*.0
-----0*-.---0-0--111
0--1-11..*.10-001--0
---1..*--*1*1*0-10--
--.--*0**.-*0.010---
---.-.----*-01.----0
--*-*---0*1-------0-
-----*1..0.---------
----1---000--0------
-0--100-*.-*-0-0----

Generation = 10, Population = 123.
10-1.10.*..-**--10--
111-1..1-.--101***--
--*0....-0-..-.-0--0
*1-01.0-..-0*-0*1101
1-.....*-*0..*-**.**
1-----*1.101-*-0--1*
01-.11**.**1-1-0-10-
-0-....--*-*-.*-**-1
0-.-1.*.*.*.-.-1-0-1
---.-.-*01*--.*-1--0
0-*-.01-*.---1-0----
-0-0-....0*01--0---0
----.--*0**-1--1--0-
-01----1**1.-*---0--

Generation = 12, Population = 134.
----*.**...-*.---01-
1*---..-1.--1*1..*--
--.-****101..-.-----
**1-**--..1-.--*--**
10.*****1*0...-...**
--001-.*..011.0011..
0-1.*1**..**1.*-*10*
1--.*..10.1**..-**1*
00.-1*......-.-10-0-
--1.-.**-1*10**---1*
01*1**.1..-1011*--00
---0-...*-.-10--*0--
0-1-*1*.*..-*-1.*0--
1-.-10*-..1*-*-1-0--

Generation = 14, Population = 136.
-10-...**.*-*.*--0*1
*.*01..*.**11.....0-
-1.1***.*0-*.-.101*-
.**-**11*.-**--.**..
1-*..**.1.*...*.*..*
1--**1....-*-*--.1**
--*.*1...**.*.**.1*.
1-1*...1*.1.**.-*.1*
0*.--.......-*0*0*0-
--..0*..-****..1-1*.
-1...***..-1-1*.-000
01---..*.1*0.-1-.0--
*0--.....*.0.1-**---
***1--.*..**-*1-**-0

Generation = 16, Population = 112.
-.01......**.*.---*.
***-1....*..1*....--
1**-.....0-..-.*-***
*..-..--..1**1*....*
.1.*.....*......*...
.-1*...*..*.-.11.-..
1*..*-*.*.......*-**
**-.**....*..**1****
0..**...*.*.*.-.*.*-
-1..*.**1.*.....-..*
-*****.****-1...1---
0*1-0.*.*1*-.1.-.-0-
**-1*......-..1..--1
.****1....*.-**-**00

Generation = 18, Population = 98.
*.0.......**.**-1**.
*..-1....*.*.**..*01
*.***...*--..0..1..*
.*.-*.--**.**-.***.*
*1..........*....*..
.-*....*.**.1****-..
1...*-...**.**..*-..
.**.*....**....1..*.
-.**..*.*.****-*...-
-**.............-*.*
-......*...1-...1*-*
-.---....***.-.0.-0-
..--.....**-*.**.*-.
............***-**-0

Generation = 20, Population = 102.
.*-.......***..-....
*.*-**..**.*.***.*-1
....**.*.*-*.-..***.
...0**1*.*.**-...*..
.-.....*....***..**.
.0.......*.*.*.*.1*.
1.****..*..*.**..*..
.*****......*..*..*.
1...*....***..-**.**
1**.......*.....1...
1**.....****-*.*..-.
-.---...**...-.*.--0
..--....**.-.....*0.
..........****.-**0-

Generation = 22, Population = 93.
..0..*..*****..-*...
...1.***..........*1
....**.*.*-..-.**...
...-*.1*..*.*1.*....
.-...****.**........
.-**..*..****..*....
1..**........*.*.*..
....**...*...*.....*
*..**...****..-....*
..***...*...*.....*.
-......**...-.....-.
1*-1-..**..*.**.**00
.*1-....**.-..*..*0.
.........**.*..*..01

Generation = 24, Population = 88.
..-...******...1....
...1*.**.*.**....*..
...**.....1*.-......
..**..-.....*...*...
.1...*.**..*....*...
.1..*..****.*.*.....
-***...*...*..*..*..
........*........***
...*....*...**0...**
..*..........*....**
-...**....****.*..-*
..--1......*...*.*--
*.*1....***1*.*.*.*.
.*......****......0.

Generation = 26, Population = 69.
..-..**....**..-....
...1*.*...*.*.......
...***.......-......
..**.*1..**.**......
.*...*..............
*1...*****......*...
-*.....*..*.....*.*.
.*.*...**.....*...*.
...**.......*.-.....
...*.*.....*..*.....
-.*.............*.1.
.**-.*.....**.**.*1*
....*......1...*...*
.*.*............**-.

Generation = 28, Population = 53.
..-..**....**..-....
...-..*...*.........
...........***......
.**......***........
*..*..****..........
..*.....**..........
-*.**.*..*......*...
..***...............
..............1.....
.*............*.....
1...*......*..*.*..*
*..*......*......*..
.*.**......**.*....*
...............*..-.

Generation = 30, Population = 53.
..-..**........-....
...-.**...***.......
......*.**.**.......
..*.......*.........
...***.**.*.........
***...****..........
*........*..........
..*..*..............
..***........**.....
.**..........***....
*...........*..*....
*...*......**.*.....
....*......**.......
...*..............-.

Generation = 32, Population = 42.
..-.......**...-....
...-...****.*.......
.......***..........
...*...*.***........
.*.......***........
*......*.**.........
*.....**............
.**..*..............
..............*.....
.*.........***.**...
.*.........**.......
.............*......
............*.......
............*.....-.

Generation = 34, Population = 32.
..-............-....
...-...*............
......**............
....................
......***.*.........
**....*.............
*....*..*...........
***...*......**.....
.**.........*..*....
...........*........
..........**...*....
...........*.**.....
............**......
..................-.

Generation = 36, Population = 31.
..-............-....
...-..**............
......*.*...........
........*...........
.....**..*..........
.*......*...........
*.*..*.**...........
..**..*.....*.*.....
..............*.....
..........*...*.....
.........*....*.....
..........*....*....
...........**.*.....
.............*....-.

Generation = 38, Population = 32.
..-............-....
...-..**............
........**..........
.....**.............
.....*....*.........
..*.................
...***...*..........
.*.*..*.*.....*.....
..*............*....
.............*..*...
.........****...*...
.........*..........
..........*....*....
...........*..*...-.

Generation = 40, Population = 28.
..-............-....
...-...**...........
.....*..**..........
....*..*............
....................
...*................
..**.**.............
..**.*..............
...........*..***...
.........*..*****...
.........*..*.......
.........*..........
....................
..................-.

Generation = 42, Population = 25.
..-.....*......-....
...-...***..........
.........*..........
....................
...*................
...***..............
......*.............
....***.............
............*..**...
..........*.*...*...
.........**.**.*....
.........*..........
....................
..................-.

Generation = 44, Population = 31.
..-....*.*.....-....
...-...*.**.........
........*...........
....................
...*................
..**.*..............
...*..*.............
....***.............
.....**...**...**...
.........*..*.*.*...
........*...**......
.........***........
....................
..................-.

*** Life<Cell> 10x1 ***

Generation = 0, Population = 4.
0
0
-
-
0
-
-
-
-
0

Generation = 3, Population = 6.
.
1
0
-
0
0
1
1
-
-

Generation = 6, Population = 6.
.
.
.
1
1
1
*
.
*
1

Generation = 9, Population = 1.
.
.
.
.
-
1
.
.
.
.

Generation = 12, Population = 1.
.
.
.
.
1
-
.
.
.
.

Generation = 15, Population = 1.
.
.
.
.
-
1
.
.
.
.

Generation = 18, Population = 1.
.
.
.
.
1
-
.
.
.
.

Generation = 21, Population = 1.
.
.
.
.
-
1
.
.
.
.

Generation = 24, Population = 1.
.
.
.
.
1
-
.
.
.
.

*** Life<Cell> 7x4 ***

Generation = 0, Population = 9.
0-0-
----
---0
--00
----
0---
0-00

Generation = 4, Population = 14.
0--.
0--*
-***
1.1*
.--1
.00-
*--*

Generation = 8, Population = 10.
-*-.
-0*.
..**
1.-*
.-..
.1.1
..1.

Generation = 12, Population = 12.
1.0.
*-..
*..*
1.-*
.**.
.1*1
....

Generation = 16, Population = 7.
..-.
.1**
...*
.***
....
.-..
....

Generation = 20, Population = 11.
.***
*..*
**..
.*.*
..**
.-..
....

Generation = 24, Population = 9.
.*.*
.*.*
....
.*.*
*..*
.-.*
....

*** Life<Cell> 6x5 ***

Generation = 0, Population = 8.
-0--0
-----
-0---
-0-00
-0---
----0

Generation = 4, Population = 15.
00*--
----1
---*1
10-.-
-*-10
110.*

Generation = 8, Population = 11.
*-*.0
*--1.
*.-.-
.00.1
0.1.-
..-..

Generation = 12, Population = 11.
*-..*
*.-1*
..**.
**-.-
**...
.....

Generation = 16, Population = 13.
**...
*.-1.
**...
*.0.-
***..
.**..

Generation = 20, Population = 7.
.....
..1-.
.....
..***
.*.*.
..*..

Generation = 24, Population = 7.
.....
.**1.
.....
*....
.*.*.
..*..

Generation = 28, Population = 13.
..**.
.*..*
..***
.*.*.
.*.*.
.**..

*** Life<Cell> 14x5 ***

Generation = 0, Population = 22.
0--0-
0----
0---0
-00--
-0---
-0-0-
-----
00-0-
00-0-
----0
--00-
-0---
-----
--0-0

Generation = 5, Population = 26.
*.*-*
-.1--
-0-.1
0-1--
.0-.-
*.---
*0*-1
---.*
-1*.1
.-..1
*0*.-
-01.-
-----
-*1--

Generation = 10, Population = 25.
.....
0.*-0
-10.1
11-1.
..-.0
*..1*
.*...
--0.*
*...-
....*
.-..-
-01.-
*-*.-
*..**

Generation = 15, Population = 28.
.....
*****
.*0.*
**11.
..-.1
.....
.**..
0--..
....1
.....
...**
-1**.
**..1
***..

Generation = 20, Population = 14.
..**.
....*
.....
*..*.
*..*-
.**..
..*..
---..
...**
....*
...*.
--...
....-
.....

Generation = 25, Population = 12.
.....
.....
.....
.....
...**
..*..
.*..*
0*-.*
.*..*
...**
.....
--...
....-
.....

Generation = 30, Population = 6.
.....
.....
.....
.....
.....
.....
.....
**1..
**...
.....
.....
-1...
....-
.....

Generation = 35, Population = 1.
.....
.....
.....
.....
.....
.....
.....
.....
.....
.....
.....
1-...
....-
.....

Generation = 40, Population = 1.
.....
.....
.....
.....
.....
.....
.....
.....
.....
.....
.....
-1...
....-
.....

Generation = 45, Population = 1.
.....
.....
.....
.....
.....
.....
.....
.....
.....
.....
.....
1-...
....-
.....

Generation = 50, Population = 1.
.....
.....
.....
.....
.....
.....
.....
.....
.....
.....
.....
-1...
....-
.....

Generation = 55, Population = 1.
.....
.....
.....
.....
.....
.....
.....
.....
.....
.....
.....
1-...
....-
.....

Generation = 60, Population = 1.
.....
.....
.....
.....
.....
.....
.....
.....
.....
.....
.....
-1...
....-
.....

*** Life<Cell> 5x18 ***

Generation = 0, Population = 12.
0--0-0----------0-
--0-------00------
0----------0------
---0--------0-----
0-----------------

Generation = 2, Population = 28.
010----0---1--0-0-
0--00---01---0----
0-11-0---0---0--0-
-01--0-----0--0---
0-0--------0------

Generation = 4, Population = 33.
-1*-1--0-1-11---0-
0-1----0--*1--00--
--111*-0-------10-
--.0---00---1---1-
--*101-----*----0-

Generation = 6, Population = 44.
0**01-1*-11-*1-0--
---01--0--*-0----0
*--.-.------110--1
0-.0-110-101--00--
01**0*1--0-.-001--

Generation = 8, Population = 41.
****1-**0*-1**----
-----1--*-*1-----*
.1-**.-0---1----1.
-1.*-1**--0.1---*-
-1**-.1-1*0.1*--*-

Generation = 10, Population = 46.
.**.*-**-**1**-00-
--*-*---.*..0--00*
**1*.*0*0--.-10-.*
1-*.-...1-*.*--1.1
11.*1.*-**-.-*--.1

Generation = 12, Population = 46.
****.-..1**-**0-00
--.1*--1**..**--**
**-..*-.011.-.-*.*
11*.-...-*...-1-.-
1.***..0**0.1**-*.

Generation = 14, Population = 42.
..***0**1..-.*-0--
00.1.--.*...*.10..
**1**.-.-1..-*1*.*
*...1*..-....0.1*-
*.**...-.******1..

Generation = 16, Population = 34.
..***0**-..-.*-*10
-0*1.--.*.....1**.
..-.**-.0-*.1.**..
....-*..1..*.0**.-
....*..-..***..-..

Generation = 18, Population = 25.
**...-**-..-..-.*-
1-.1.--.*.....1.**
.***..1.01..1.....
....-..*..*..*.*.-
.......-...***.-..

Generation = 20, Population = 34.
***..-..-..-..*..-
.*.**1-.**...*1..*
*..*..-*0...1*...*
.***-..*.***....*-
.......*.****..*..

Generation = 22, Population = 33.
.**..-..**.-.*...-
*.....1..*.*..-***
.*....*.-..*..****
.********..*..***-
.**...............

Generation = 24, Population = 20.
.*...-....**....*-
*.**........*.-.**
*.......1*.***....
*.......*........-
...*...*..........

Generation = 26, Population = 21.
.**..-..........*-
*.*........*.*1.**
.*......-*.*.*....
........******...-
........*.........

*** Life<Cell> 13x14 ***

Generation = 0, Population = 22.
-------0-----0
-------0------
-----------0--
-00--0-------0
0---0------0--
-0------------
-----0-0------
--------------
---------0----
---0--------0-
----------0---
00---------0--
-------0------

Generation = 5, Population = 100.
--0-*0-.0.00--
-.-*-00*000-0-
10-01*0*0-----
.*1---*-000-0-
*0-0-00-11010-
-*110-----00-1
-*0*1--001*-00
10---100-0-*-*
*-00**-1--1101
--0-0---*0--1-
-00---*10---*-
.1-01-0-00-*1.
-----0-001*-00

Generation = 10, Population = 76.
**0*.-1*-.-*-.
-.*.-*.*110**1
.0.1..1*11*1--
*....-*-.*-*-*
*.--11--*.0.--
-..*-1-.-..0-*
*....-.0-..-.1
*0**----0.*.-.
*.11..-.*-.**.
010..1**.1*-1-
.0.-.1..1---*-
..*..*.0--*.*.
1.-*-*--....11

Generation = 15, Population = 58.
..-****.-.-.-.
0*..-**..**...
.-..*.-.....01
.*..*-.-....**
..11*1-1..-*-*
-.......0**-*.
.....-.--.*-..
.-**.1*.1.*.-.
..***.*..-.*..
-*0..1*....**.
.**0*...*.-1..
..*......-....
.****.-.*...-.

Generation = 20, Population = 51.
..-..***-.-.-.
**....**......
*1*.....*...0-
***..1*.*****.
.....*1-..1.-.
-.*.**..-.**..
..***..-......
.1*.*.......-.
..*.**.*.-....
-*....**......
...1.***..-...
.*.**....-....
..*...-.....-.

Generation = 25, Population = 42.
..1*****-.-.-.
...******.....
.1*.**......**
.....-*.***...
...**.*****..*
-......*1*.*..
.......-......
............-.
.*.......-....
*.....*.......
.*........-...
......**.0....
......-*....-.

Generation = 30, Population = 13.
........-.-.-.
..............
**............
.....-..*.*...
........*..*..
-.....*...*...
......*.**....
......**....-.
.........-....
..............
..........-...
.........-....
......-.....-.

Generation = 35, Population = 19.
........-.-.-.
..............
..............
.....-...**...
......****.*..
-........*.*..
.....*..**.*..
.........**.-.
......*..*....
......*..*....
..........-...
.........-....
......-.....-.

Generation = 40, Population = 17.
........-.-.-.
..............
........*.....
.....-.*****..
......*.***..*
-......*.*....
..........*...
...........***
..............
..............
..........-...
.........-....
......-.....-.

Generation = 45, Population = 9.
........-.-.-.
..............
..............
.....-........
..........*...
-........*....
........*....*
.........*...*
..........***.
..............
..........-...
.........-....
......-.....-.

Generation = 50, Population = 10.
........-.-.-.
..............
..............
.....-........
........*.....
-......**.....
......**......
.......**.....
..............
...........**.
..........0...
.........-....
......-.....-.

*** Life<Cell> 1x3 ***

Generation = 0, Population = 3.
000

*** Life<Cell> 2x5 ***

Generation = 0, Population = 8.
00-00
-0000

Generation = 2, Population = 2.
-----
0---0

Generation = 4, Population = 0.
-----
-----

Generation = 6, Population = 0.
-----
-----

Generation = 8, Population = 0.
-----
-----

Generation = 10, Population = 0.
-----
-----

Generation = 12, Population = 0.
-----
-----

Generation = 14, Population = 0.
-----
-----

Generation = 16, Population = 0.
-----
-----

Generation = 18, Population = 0.
-----
-----

Generation = 20, Population = 0.
-----
-----

Generation = 22, Population = 0.
-----
-----

Generation = 24, Population = 0.
-----
-----

Generation = 26, Population = 0.
-----
-----

Generation = 28, Population = 0.
-----
-----

Generation = 30, Population = 0.
-----
-----

Generation = 32, Population = 0.
-----
-----

Generation = 34, Population = 0.
-----
-----

Generation = 36, Population = 0.
-----
-----

Generation = 38, Population = 0.
-----
-----

Generation = 40, Population = 0.
-----
-----

Generation = 42, Population = 0.
-----
-----

Generation = 44, Population = 0.
-----
-----

Generation = 46, Population = 0.
-----
-----

Generation = 48, Population = 0.
-----
-----

Generation = 50, Population = 0.
-----
-----

Generation = 52, Population = 0.
-----
-----

*** Life<Cell> 3x20 ***

Generation = 0, Population = 7.
-----------0----00--
------------0-------
--0-------00--------

Generation = 3, Population = 31.
-0-0----01-0011-**-1
0---0---00-0001---00
-----0-01-*-11-0110-

Generation = 6, Population = 23.
0----0------*.*-.*1.
------0-1-.-11-11*--
--0--0-1*...***.*-00

Generation = 9, Population = 32.
--0---00-1*-***1.***
--001010*-.-.****.--
-01-*--..*.****..-.1

Generation = 12, Population = 18.
--------*.*0...1.*..
1-.1.0*1..*-....*.--
-.*.*01..*.......-.1

Generation = 15, Population = 18.
01*01**0*.**...-....
--.1*-....*-......--
1.....-***.......-.-

Generation = 18, Population = 17.
1**1...1.**....-....
--*-.1.*...0......--
-..***1**........-.-

Generation = 21, Population = 20.
********.***...-....
*-.-.*....*1......--
*...*.1..**......-.-

Generation = 24, Population = 9.
**...**.*......-....
*1.-.......-......--
......-.**.......-.-

Generation = 27, Population = 6.
**.............-....
*-.-...***.-......--
......-..........-.-

Generation = 30, Population = 6.
**......*......-....
*-.-....*..-......--
......-.*........-.-

Generation = 33, Population = 6.
**.............-....
*-.-...***.-......--
......-..........-.-

Generation = 36, Population = 6.
**......*......-....
*-.-....*..-......--
......-.*........-.-

Generation = 39, Population = 6.
**.............-....
*-.-...***.-......--
......-..........-.-

Generation = 42, Population = 6.
**......*......-....
*-.-....*..-......--
......-.*........-.-

Generation = 45, Population = 6.
**.............-....
*-.-...***.-......--
......-..........-.-

Generation = 48, Population = 6.
**......*......-....
*-.-....*..-......--
......-.*........-.-

*** Life<Cell> 15x18 ***

Generation = 0, Population = 12.
------------------
---0--------------
------------------
-------------0----
------------------
----0------------0
---------------0--
------------------
-----------------0
-------0----------
-0--------------0-
---------0--------
------------------
----0---0---------
------------------

Generation = 2, Population = 33.
------------------
-0---0-------0----
------------------
---00------0---0-0
---------------0--
--0---0------0-1-0
-------------0----
----0--0---------1
-0--------------10
-----0------------
---0----------0--1
----0---1--0------
-0--------------0-
--0------10-------
------------------

Generation = 4, Population = 39.
------------------
---01--0---------0
---------------1--
---------0-------0
-----------------0
0--1---10----*-.--
-0---------0----00
---------0---1---.
-------------0-1*-
---1----0--0-----0
-0---1------0--11-
-----1-------0----
-----------------1
0------0-.--0-----
-0--------------0-

Generation = 6, Population = 62.
---------------0--
-01-.-1--------1--
-------------0----
0---1--01--0-0-*--
-0---------0----1-
001---1.-101-.-.-0
---1-----1----0-*-
0----------1-.-1-*
-----0------1*0..-
-1----0---1--1-0-0
-----.-0--0----..-
0----.--1---0--1-1
-----1------1----1
0-0------.1--10---
-0-0----------0-01

Generation = 8, Population = 65.
---------------*-0
--.**--1---0---.-0
-1--------------0-
-----1--.1-----.--
-------1-------01-
--*10-1.-1-11.1.--
---------.------.*
-----------10.1-1*
---------0-0*.-..-
---10---0-.--.----
-----.--01--110..1
-1--0.0------1---*
-0---1---0--.--11*
0-0-0---0*110*--10
---------0-----0-*

Generation = 10, Population = 109.
-0011--------0-.0*
--...-*--0---00.0*
--1-1--10-----0*00
--01--1-.--10-0*-1
-11--1--10---00*.-
1-.1--1**10**.1.-1
--1----00*0001--..
--0---0-0111-*-1..
-------00---*.-*.-
--1.*-0--1.-0.-00-
-1--0.-1-.*1..-*.*
1.--0*0-*00--.-*0*
--------0---.--..*
-1----01**--0.1--*
-0---0-0---1---0**

Generation = 12, Population = 128.
1-01*1100--0-*-.0.
--...1.10--0--0.*.
0-.-1--**-0-11*.*-
-0-.-1-1**-.-*-.-*
0.1---11-0----0..1
1-.-*-**.1-**.**11
11.-0-100.-0----..
--*10-0-*.*10.1**.
-000-01-0-1-*.*..-
--1**-011-*0*.1**-
--0-0*110..*..-..*
1.010.*-*-00-*1.-*
----1-0----0.0-*.*
1.-0---*..*1-.1--*
-*---------1--1***

Generation = 14, Population = 117.
-1--**-*0---0.-*-*
--.*...*-10-0--..*
0-.----..1--.....1
10-*1--..*0.-.*.0.
*.1-11-**011-1-.*1
11.**-*..*1...**11
-*.1--*--*00*-0-*.
-1.*-1-1*..*-.1...
--0*--.*0---*..**-
-1***--..-.-..1.*-
1--0**-.*....*1..*
-*---.*-.--*-***1*
----*--01--0.--..*
-*-00-1*.**.1..11*
-.-10-0-0--.1-1*.*

Generation = 16, Population = 119.
*1--.*-.-----.-.-.
1**.*.*.---1-1-.**
--.0*00*.11-*..*.*
*-*.111...-*1..*-*
.*1-*.**.--*01*..-
-1..*-....*.***.11
-**1--*1-.--*101**
1*..0---..*.1.*...
--0.0*..0-1-..*.*1
0**..--**-.-..*.*0
1*-0..-.**....*..*
-.1*-.*-.--*-..*-.
0-0-*---*-0-.*-**.
-.00*--.**.....-1.
0.-100**0--.*0***.

Generation = 18, Population = 108.
.11-..1.-00--.0***
1**.*...-*---1*..*
1*.-.*0*.**0*....*
*-*.....**0.*..*1.
*.10...*.--.-....-
*1...-..*...*...-1
-..*--.*1.1-*.0-..
.**.*-1*.*..**....
-***0...*0*1*.**.-
-.***1*..1*1.**.**
-.0-*.*..*....***.
-.-.1..-.11.-.**-.
----*-*1.-0-..0*..
-.0-.--........--*
-.----**0--..0***.

Generation = 20, Population = 108.
.11*..-**----*0***
-...*.**-.--1....*
*..-*.-**..-*.**.*
*-***.*.*.0.**....
..--*....--*-..***
**.**-.***.*...**-
*..*-0.*1.--*.0**.
**.**-........**..
-...*.**.0.....*.-
0..*.1***.*-.....*
-.-*.*...*........
-*-.-.*1*11*1...1.
-1--.-*..1***.0...
-.0**0-...*.**.--.
-.--1-.***0..-**..

Generation = 22, Population = 99.
**1***-**111-.-.**
*...*.*.-.1-..*..*
***1*.1....-....**
.1*.**.*..0......*
*.--*..*.-1.0.*.*.
*..*.0**.*.****..1
....-0**-*-1.*0...
*..*.-.......*.**.
-........-....****
0..*.1.....*...**.
*.*****...**......
-.*.-.*1.1..1...-.
-.--.-.*.-....-...
1.-..*1**......-1.
-.11*-..*.-..1....

Generation = 24, Population = 88.
..-.***.*-***.-**.
**..*...*.*-...*..
...-..*.***0...*.*
.-.....**.-*..*...
..-1....*-*.-.**.*
.....-..*.**.....1
....--*.1.1.*.-...
....***.....*...**
0****....-.***..**
*******...*.*.....
....****....*.....
-.*.-..-*1..-...-.
1.--.*..*-*...-...
-.*...-***.....-1.
-**1*0.*..-..-....

Generation = 26, Population = 69.
..-.****.1****-.*.
....*.**..*-*.....
...-......*-*...*.
.-.......*-*.*....
..-1.....-*.-.*.**
.....-..*.*.......
...*1-*.*..*..-*..
...*..**.......*..
0*....**.-......**
.......*..........
.......*.**.......
-...-..-...*-...-.
1*--.***.1*...-...
*.***.***......-1.
-.*-**.**.-..-....

Generation = 28, Population = 59.
..-....*.*****1...
.......*...*..*...
...-.....*.-.**.*.
.-.......*-..**.*.
..--.....-..-.*..*
..*.*0.**..*...*..
.....-..***...-.*.
..*.**..*......*..
-..*...**0........
.......***........
...........*......
-...1..-...**...-.
1*01*.....**..-...
*........*.....-1.
-.*-*.....-..-....

Generation = 30, Population = 69.
..-......****.1...
........*....*....
...-.......1*.....
.-......*.*.**.***
..-1...**1*.1.*...
.....-***.*......*
....*-**..**..0**.
...**.............
-..***...0*.......
.......****.......
.*......*.*.*.....
****...-.*...*..-.
1.-1**....*.*.-...
**........*....-1.
1..-......0..-....

Generation = 32, Population = 79.
..-......*****1...
........**...**...
...-.....*...**.*.
.-.....**.*......*
..-1..**.1.*.....*
...**-**....*....*
....*0****.***-.*.
...*..***..*..***.
-...***..-*.......
....*.*...**......
**......*****.....
**.....1*...*...-.
-*--*...*...*.-...
**.............-1.
**.-.....**..-....

Generation = 34, Population = 88.
..-.....*****.-...
.......**....**...
...-..******..***.
.-.*****.**...*..*
..**.*...-**...*..
..**.*...*.....*..
....*0...*.*.*-...
...**......*.*...*
-..***...1****.**.
...***.***.*......
.*....*.*...*.....
*.**...*.*.***..-.
-.1*...***....-...
*.**....*......-1.
.*.-.........-....

Generation = 36, Population = 85.
..-....******.-...
.......***....**..
..*-*........***..
.1***.....*...*.*.
..**....*-.**.*...
........**.**.*...
.....0....*.*.**..
.............*....
-.**.....1..****..
.***.*.*....**....
...*****..**.**...
..***.****...*..-.
-.*.*.**....**-...
.*..*..*.**....-1.
..*-....*....-....

Generation = 38, Population = 78.
..-.......***.-...
..**...*.*.*****..
.**-*...*.*..*....
**..**..**.**.....
........*-.**.....
........*.**..*...
.....-..****.***..
..........**......
1.*.*....-........
**..*...*.**......
.**...............
..**..........*.-.
1....**.*...**1...
.*..****.**..**-1.
..*-..****...-....

Generation = 40, Population = 53.
.***.....*....*...
.*......**........
*..*.*.*.*........
***..*............
.****....1...*....
.........*.....*..
.....-.**...*.....
............*.**..
.........-........
**................
.*................
...*.........*..-.
1*..*....*.*..**..
.*..*...*.*.*.*1-.
...-.....***.-....

Generation = 42, Population = 64.
****....***.......
*..***....*.......
*..**.*****.......
**.*..****........
.*****..**........
..***...**....*...
.....-.......**...
.............*....
.........-........
*.*...............
..................
..........**....-.
...*.....****..*..
*..*....*....**1-.
...-.....****1....

Generation = 44, Population = 40.
***.......*.......
*.*......*.*......
**................
**................
**...**..*........
....***..*...**...
.....0......*..*..
.............**...
.........-........
..................
..................
............**..-.
........**..**....
........*....*.--.
...-.....***.1....

Generation = 46, Population = 36.
.*................
..**..............
.***..............
..**..............
.*.*.*............
...**.*......**...
....*-......*..*..
.....*.......**...
.........-........
..................
..................
.............*..-.
........**....*...
........*..*..*1-.
...-.....******...

Generation = 48, Population = 31.
..................
..**..............
..................
..................
..................
..**.........**...
..***1......*..*..
.............**...
.........-........
..................
..................
..............*.-.
........**....***.
........*..*....*.
...-.....********.

Generation = 50, Population = 29.
..................
..................
..................
..................
..................
...*.........**...
..*.**......*..*..
...***.......**...
.........-........
..................
..................
................*.
........**......**
........*..*.....*
...-.....********.

Generation = 52, Population = 26.
..................
..................
..................
..................
..................
...**........**...
..*..*......*..*..
...*.*.......**...
....*....-........
..................
..................
................**
........**.....*..
........*..*.....*
...-.....***...**.

Generation = 54, Population = 22.
..................
..................
..................
..................
..................
...**........**...
..*..*......*..*..
...*.*.......**...
....*....-........
..................
..................
..................
........**......*.
........*..*....*.
...-.....***......

*** Life<Cell> 14x19 ***

Generation = 0, Population = 19.
0---0------------0-
-------0---------0-
-------------------
-----0-------------
--------0----------
------------0----0-
------------------0
---------0---------
-0-----------------
0----------------0-
-------------------
--0---0---------0--
-------0-----------
-------0-----------

Generation = 3, Population = 108.
---0---0-0----01-.0
0-----0---0---010--
-0---0-0----0--00-0
0-0---0-0-00-0---00
---0---0--100-00-0-
-0--0----1-0-011---
--0--0----000-0----
---0--0---0110--0--
--0-0-00-0-00--000-
---0-0--0-0---01*00
--0----1-0----00000
-0---00-1----0-00*1
--0-01---10---0-000
-0-00--.-10----0-0-

Generation = 6, Population = 121.
--0-0-0----1-*-10.-
----------1*-01--*-
000-0-0-----11-011*
1-------0--01---0--
--100-----1----00*1
*0---0---*00-11-0-1
1----0-11-----1-000
--0-0------1*-01*10
-----011-10---0-1-0
--0-001*---1**11.-1
---0-0-10--0----01*
0-0001.-1**--10-0..
-0-*-1-*-*---0---1-
-1*1101*---*1001*.-

Generation = 9, Population = 119.
-*10-0--1--.1*-.1.0
--0---0-0*.*-*.1-*1
001--000--0-1---*.*
.*-001*-0--11-00-*-
00*010--0-.----11.1
.*-011-1-.1-0.1---*
*--011-..0-00---1*-
--0--0-10-0.*-1-..-
--00*-.*-.-00---*-0
00-01-..---*.....1*
--0-0-*1-------1--.
-0-01..*1**00-*1..*
0.0.---.*.--0-0--1-
-1..--*.-**.-1-1*.-

Generation = 12, Population = 121.
0**.1-0-*0-.*.-.-**
.*---*-*0...0.*11..
-1----0*--1-.*-*..*
**01-1.----*111--.-
-1.-1*--1*.-1---.*.
.**.**-*-*1***--00*
.-0-.*-..0*1*0--.*-
--1**1**.*1.*11..**
--0..-*.1.*10-00.0.
.11-.0..---......**
--1*-1.--0-**10.0..
1--.*.*.*..101.-.*.
0.-.--*.*.-**0-0*1-
--.*1-..**..*1-...-

Generation = 15, Population = 117.
**..---**-*..*..*..
..11-.1.-......***.
-1*-1--*-**1*.1*...
*.1.1..0.-0****-0.*
*-.1-*0-.*.**-***.*
.****.1.*.*...11-1*
.0--..-..1...*1-*.-
1....*........1.**.
0-0**0*.*..-1.-..-.
*..1.-*.-1-......**
-1-*-.**001*....-..
*-1...***..*-..****
-*-.-*....-*.**-.-1
**...1*****..10.**1

Generation = 18, Population = 87.
.**.-1-..-......**.
*.-.0.-*-*.*....**.
*.*1**1.-**...-....
*........-1.*..-1..
.1..*.--**..*0..*.*
...**.....*..*.-*.*
.11*..**.-*.*..-..*
.*.*...*..*..*..*.*
---..-..***.-*-..-*
...-*1..-*0..*.*.*.
1-**-...-11.....-*.
.--...***.**-***...
-.0..*....-....1.--
.....-*...***1-...-

Generation = 21, Population = 93.
....-*0.***.....**.
**1...1.-**.....*.*
*.****.*1....*1....
**.......-..*.*0...
.-....1*.....1.**..
............**.*.**
.-1......**...**..*
..*.*...*.**.......
1-**.-.*.**...-..-*
.*.-*..*-*1.**..*.*
--.*1..*1*.***.....
.0-*......**1*.....
-.0...****-*..*..1-
.....-***....**...-

Generation = 24, Population = 87.
....**-*.......*.*.
..1.****0..........
**...........**..*.
..*.*....1..**.1...
....*........*.***.
..........*.......*
.**.....*.......**.
.*****..*..*.**...*
--..***.*.****1..-.
**.1..**..-..*.....
1-..-...1....***...
.-.....**.***...*..
-*-......*0**...*--
...******.*.****..-

Generation = 27, Population = 93.
.*********.........
*.-.....**...***...
*...***.**...**.*..
**.**.**.-.*...*.**
..**........**.*.**
...................
........***...*....
**......****.*.....
.*..*.*....*..*..-*
...-.............*.
.-*.*...*****..***.
*0**...***.**..*..*
-.-*.....*1...*...*
..****........***.1

*** Life<Cell> 8x9 ***

Generation = 0, Population = 21.
-----0000
-----0--0
----0-00-
0000-----
-0----0--
----00---
---0-----
0---0-0--

Generation = 5, Population = 33.
--1100---
-*-0-1.-.
1*.-0**.-
.*1.010--
0--0-0.*-
0--0***1-
----*-*0-
01--1----

Generation = 10, Population = 38.
0**.**110
1*.-.1*1.
..*--.*.*
*.*****-.
**.11-..0
1**1.....
10-1...1-
.*1-.--.1

