27

13 2
23
12 1
4 0
6 0
6 1
5 1
5 1
9 1
3 1
10 0
12 1
9 1
9 0
11 0
9 1
4 0
9 0
12 1
4 0
2 1
3 1
4 0
2 0
12 0
2 4

17 8
3
5 7
14 0
6 4
54 5

20 19
13
0 18
18 6
5 5
5 1
0 4
2 9
18 2
5 1
11 1
19 3
17 1
0 6
1 12
36 5

3 11
14
2 2
0 9
2 7
1 1
2 0
2 8
2 3
1 7
1 3
1 4
0 0
1 0
1 0
0 1
6 3

19 8
21
14 4
10 2
6 0
15 7
17 0
10 2
16 6
16 6
18 2
1 3
0 0
9 5
11 1
2 1
6 7
10 6
11 2
10 2
11 0
6 2
1 6
19 2

18 5
18
8 4
4 3
4 1
7 3
14 2
3 0
13 0
17 0
6 3
2 2
5 2
16 0
16 3
3 4
16 4
14 0
8 1
0 3
9 3

1 6
11
0 1
0 1
0 1
0 1
0 3
0 1
0 0
0 2
0 4
0 5
0 1
11 4

4 19
25
3 14
1 10
1 8
0 16
3 5
2 8
1 12
0 6
1 2
2 8
1 1
0 14
0 15
1 10
0 0
0 7
2 7
2 7
0 2
0 17
3 9
3 1
2 18
0 5
0 0
29 2

7 14
8
0 2
5 11
3 10
0 8
2 10
4 5
0 0
1 0
41 3

11 9
23
8 4
8 4
10 1
7 7
5 3
10 5
0 3
5 8
2 7
4 3
3 7
1 0
8 7
10 2
4 8
4 5
1 7
5 6
0 5
10 8
0 6
9 0
2 0
14 3

11 9
17
1 3
0 0
10 7
5 5
9 7
1 3
8 5
8 4
0 2
9 7
8 0
5 7
1 7
3 0
1 7
8 5
7 3
24 5

7 20
15
0 5
4 6
0 14
1 6
4 9
6 11
0 18
4 16
5 16
3 10
0 7
3 19
5 5
5 12
1 10
38 5

8 19
22
2 3
7 4
1 16
6 7
4 17
4 11
7 12
7 13
3 2
2 2
0 11
4 12
6 18
3 9
6 16
4 2
4 18
5 5
2 18
3 16
3 12
3 11
50 5

5 10
7
2 8
1 1
2 3
0 2
3 2
1 0
3 0
26 5

6 6
24
5 5
2 5
5 3
3 0
0 5
0 0
5 2
4 5
2 0
0 1
2 3
4 2
1 2
5 5
4 2
5 3
3 3
3 2
3 5
5 4
2 1
2 5
3 0
5 2
31 2

1 20
17
0 5
0 12
0 0
0 8
0 10
0 14
0 11
0 11
0 9
0 7
0 17
0 19
0 11
0 11
0 17
0 2
0 4
60 2

11 10
8
7 4
10 0
7 2
5 7
3 5
3 9
6 9
8 3
49 4

6 4
28
2 3
1 0
1 2
3 0
2 1
0 0
0 1
2 0
2 2
1 2
4 1
0 0
3 0
5 3
3 0
1 0
2 2
0 0
4 1
4 3
2 2
0 2
1 3
2 0
0 0
2 1
4 1
5 3
36 4

10 11
22
0 4
0 10
3 5
9 3
3 10
3 4
9 7
4 8
4 3
0 5
3 6
9 1
6 3
9 8
1 10
8 8
9 4
7 8
8 8
2 2
7 2
1 2
50 4

3 6
26
0 1
0 3
2 5
2 0
2 2
0 3
1 4
1 1
0 3
1 3
2 1
1 5
2 4
1 5
2 2
2 3
0 1
1 1
1 4
2 5
1 4
2 4
2 0
1 4
1 5
0 5
50 4

7 15
28
5 5
5 14
3 1
0 12
3 4
0 10
2 12
2 5
6 8
1 0
1 1
2 10
5 3
0 4
0 12
4 1
1 12
0 7
4 4
5 10
3 3
3 13
1 2
4 3
2 4
6 11
2 8
0 2
58 3

4 7
5
3 0
0 2
1 6
2 0
1 0
6 2

6 15
20
2 5
2 12
5 7
4 6
1 3
3 5
2 1
1 11
5 1
1 7
3 12
4 1
3 7
3 13
4 12
2 13
5 3
4 10
0 12
0 9
4 4

17 14
12
12 4
4 6
10 1
11 2
16 2
14 12
10 8
9 9
15 12
3 1
15 1
6 4
14 5

18 3
11
14 1
2 2
3 1
1 0
14 0
2 0
8 2
16 0
17 0
12 2
5 1
45 2

4 20
7
0 5
1 13
2 10
3 15
2 14
0 10
1 8
53 5

20 8
16
18 1
1 0
15 0
10 6
1 7
12 1
15 3
16 1
5 5
18 6
17 4
9 1
6 2
0 3
3 7
15 4
38 2
