*** Life<FredkinCell> 23x7 ***

Generation = 0, Population = 12.
-------
-------
-------
-------
-------
0------
-------
-------
--0----
----0--
---0---
--0----
--0----
-0-0---
-------
-------
---0---
-------
-------
-------
-------
0-0----
--0----

Generation = 1, Population = 29.
-------
-------
-------
-------
0------
-0-----
0------
--0----
-0-00--
--0--0-
-------
-01----
--1----
0-0-0--
-0-0---
---0---
--0-0--
---0---
-------
-------
0-0----
--10---
0010---

Generation = 2, Population = 37.
-------
-------
-------
0------
-------
0-0----
--0----
0---0--
0--11--
------0
-0---0-
01-0---
0--00--
-010-0-
--01---
-0-1---
-0---0-
-------
---0---
0-0----
--1----
--2-0--
1-2-0--

Generation = 3, Population = 72.
-------
-------
0------
-0-----
--0----
--10---
-0100--
100-10-
1002-00
00-00--
-1000--
---1-0-
10-11--
-1210-0
-0-200-
010200-
01000-0
-0-0-0-
0---0--
--1----
00-00--
00--10-
--3-10-

Generation = 4, Population = 34.
-------
0------
-------
-------
--1----
--2----
---1---
--1----
2-1---1
-1-1--0
-------
0-----0
2-12--0
-2--10-
---3---
--1----
--1----
0101---
--0----
-------
--11---
----2-0
1-----0

Generation = 5, Population = 62.
0------
-0-----
0------
--0----
-020---
-03----
--1-0--
102---0
-02--02
--0-001
01-0---
1111-01
3023--1
---121-
-0---0-
-12----
0------
1--20--
0-1----
---0---
-022--0
0-2---1
-0--101

Generation = 6, Population = 75.
-------
0-0----
--0----
0-1----
0--10--
0-4-0--
00---00
21301-1
--32--3
011111-
---1---
2-22-1-
-134-02
0------
01-3-10
--32-0-
1-100--
-1-310-
1--00--
00110-0
-13-001
--3-2--
---02--

Generation = 7, Population = 80.
0-0----
--10---
-0-0---
1-2-0--
-022-0-
-0-01-0
1-1101-
-24120-
-0431-4
1-2--2-
-10----
-1-3-2-
324---3
122----
-204--1
---301-
-1---0-
1-04-10
20-11-0
-122101
--421--
--40--1
---1-0-

Generation = 8, Population = 20.
--1----
0---0--
---1---
--3----
--3----
-1-1---
-------
-------
---4---
-------
-------
-------
-------
--3----
--1----
-------
-------
2-1-1--
---2---
--3----
--5----
-0-1---
---2---

Generation = 9, Population = 46.
00-00--
-01--0-
0------
-04----
--4----
0-4-1--
-0-1---
---1---
--4-1--
---1---
-------
-------
--4----
-241---
-224---
--3----
1-1-0--
---4-1-
2-1----
-14----
--6----
0-422--
-0332--

Generation = 10, Population = 54.
1-111--
0-2---0
-0---0-
-1-0---
0--20--
-151-0-
--12---
-2-2---
-0---0-
-------
---1---
--2----
--5----
1---2--
0---0--
0---0--
--20---
--1-1-0
-02--0-
-252---
0---1--
-053-0-
-144-0-

Generation = 11, Population = 85.
2---200
103-0--
-1-10--
-2-1-0-
-0-31--
-2621-0
-0-301-
234320-
21441-4
-1-1-2-
----0--
-13----
32641--
224131-
-2-4-1-
113-11-
11-10-0
---4-1-
2-3----
--63-0-
-1-2---
--6-211
1-5--11

Generation = 12, Population = 52.
3-11--1
-140--0
--0----
1-----0
0-44--0
03--20-
---4---
--5----
--5----
-222---
--0----
-------
---5---
--5-4-0
0--5--1
--4----
--2----
-1-51--
--42---
0-----1
0--3--1
0-7332-
--64---

Generation = 13, Population = 68.
-0--202
-2--001
0-1----
22-1-01
-055--1
-4-231-
10---1-
-36----
-------
13-31--
--1----
--33---
------3
22----1
-22--12
115---0
--3-0--
2---21-
2-5---0
126--02
-1-4--2
1----3-
11---1-

Generation = 14, Population = 95.
3111-1-
-3-0-1-
1---0--
---2-1-
-1-6-02
--6----
21-4-20
--73-0-
2-541--
242422-
0-210--
-1-40-1
3265-04
3------
03-5023
22631-1
--4-1-0
31-5-2-
-062101
-3--113
026-103
20-334-
-26-221

Generation = 15, Population = 88.
42---22
1441021
---1-0-
224302-
0-57--3
04-2---
32-5--1
---421-
316--0-
3----31
1---1-0
22-5-22
-3--11-
-25-4--
1-2-1--
-37421-
-15-201
4--6-30
-1-32--
--6-2-4
--742--
-1-4-51
--74-32

Generation = 16, Population = 20.
---1---
-5-2---
--1----
--5----
---8---
1-6-3--
-------
-------
--7----
--2----
-------
-------
-------
-------
---5---
-------
-------
-1-7---
--6----
--7----
---5---
2---3--
--8----

Generation = 17, Population = 46.
-2122--
1-430--
--2----
-26----
0-5----
---2-1-
3-1-0--
--7----
-184---
-434---
--2----
-------
-------
---1---
--2-1--
---4---
-1-1---
4-1-2--
--7----
-38----
0------
-17--5-
12-42--

Generation = 18, Population = 54.
-323-2-
-554-2-
1---0--
-373---
-16--0-
--6-3-0
--25---
2---2--
3---1--
3---2--
--3----
--3----
---5---
-------
-3---2-
-3-5---
--52---
-127-3-
2--32--
-4-3---
-2---0-
2-8---1
2-853--

Generation = 19, Population = 85.
4-3--32
--6-031
-1-1---
--84-2-
0-7----
---2-1-
32-60-1
337-31-
-1-4-0-
443433-
11411--
-24----
----1--
-2-1-1-
14251-3
247621-
-1-320-
-2382-0
-1-43--
-5-4-1-
-3-52--
319-3--
3---432

Generation = 20, Population = 52.
--43---
1-7414-
1--2--0
2-----1
--88---
-4-33--
--2----
--8----
3--5--4
--4-4-1
---2---
-------
--6----
-352---
--3----
--8----
---4---
43--33-
2-75--1
1-----4
--7----
-2+4--1
4-85--3

Generation = 21, Population = 68.
43---3-
2----5-
-1-3--1
338--22
0-9---3
1---41-
--3-0--
339---1
-18--05
44----2
------0
--45---
--7----
34-34--
-------
-49----
11---0-
-4-844-
-186--2
25-4-15
0-8----
-3--352
-2--434

Generation = 22, Population = 95.
-44-242
35-416-
122-002
-4--033
-1+8104
24-3-2-
--4-1-1
44+43-2
32-5116
5------
1142-01
-2-60-2
3-851--
455451-
1-351--
--+6-1-
22-4-11
--3----
-2-7-03
---5-2-
1---2--
-4-4-6-
4385-4-

Generation = 23, Population = 88.
--53-53
-6-5-71
--331--
--8-1-4
-2-92--
3--4-30
-25-222
-5+541-
4-8-2--
-44-4--
-2--11-
23-7-23
4---2-4
5----21
244--2-
---722-
33-5--2
44-8---
2-88--4
258623-
---5-0-
35+5372
54---54

Generation = 24, Population = 20.
--6----
3---1--
---4---
--9----
--+----
-4-5---
-------
-------
---5---
-------
-------
-------
-------
--5----
--5----
-------
-------
5-3-4--
---9---
--9----
--8----
-6-6---
---5---

Generation = 25, Population = 46.
44-32--
-67--7-
1------
-4+----
--+----
3-6-4--
-2-6---
---5---
--8-2--
---4---
-------
-------
--8----
-564---
-465---
--+----
3-5-2--
---8-4-
2-8----
-5+----
--9----
3-+73--
-4864--

Generation = 26, Population = 54.
5-643--
3-8---1
-2---0-
-5-4---
0--92--
-475-3-
--57---
-5-6---
-2---1-
-------
---2---
--4----
--9----
5---5--
2---1--
2---2--
--65---
--3-4-0
-29--0-
-6+6---
1---2--
-6+8-7-
-597-5-

Generation = 27, Population = 85.
6---453
469-1--
-3-41--
-6-5-3-
-2-+3--
-5864-0
-2-822-
46+741-
43852-6
-4-4-3-
----1--
-35----
43+52--
656462-
-4-5-2-
34+-32-
33-62-2
---8-4-
2-+----
--+7-3-
-3-5---
--+-382
5-+--64

Generation = 28, Population = 52.
7-64--4
-7+5--1
--3----
3-----4
0-++--4
36--53-
---9---
--+----
--9----
-545---
--4----
-------
---6---
--7-7-1
2--6--3
--+----
--6----
-4-94--
--+9---
2-----5
1--6--3
3-+849-
--+7---

Generation = 29, Population = 68.
-4--455
-8--172
1-4----
46-5-35
-2++--5
-7-664-
32---2-
-6+----
-------
56-64--
--5----
--57---
------4
65----2
-46--24
34+---1
--7-2--
5---54-
2-+---4
36+--36
-3-7--4
4----+-
55---6-

Generation = 30, Population = 95.
7564-6-
-9-5-8-
2---1--
---6-4-
-3-+-06
--8----
43-9-32
--+7-1-
4-952--
674753-
1-621--
-3-80-3
43+6-15
7------
25-6135
45+73-2
--8-3-2
64-9-5-
-2+9305
-7--247
149-205
56-84+-
-6+-474

Generation = 31, Population = 88.
86---75
4++6192
---4-0-
46+715-
0-++--7
37-6---
54-+--3
---842-
53+--1-
7----42
2---2-1
24-9-24
-4--22-
-57-7--
3-6-2--
-6+842-
-39-413
7--+-60
-3-+4--
--+-3-8
--+73--
-7-9-+2
--+7-85

Generation = 32, Population = 20.
---4---
-+-7---
--4----
--+----
---+---
4-8-6--
-------
-------
--+----
--4----
-------
-------
-------
-------
---6---
-------
-------
-4-+---
--+----
--+----
---8---
5---4--
--+----

Generation = 33, Population = 46.
-6654--
4-+81--
--5----
-6+----
0-+----
---6-4-
5-5-2--
--+----
-3+5---
-757---
--6----
-------
-------
---4---
--6-2--
---8---
-3-6---
7-3-5--
--+----
-7+----
1------
-7+--+-
56-74--

Generation = 34, Population = 54.
-776-7-
-++9-9-
2---1--
-7+7---
-3+--0-
--8-6-0
--6+---
4---4--
5---2--
7---5--
--7----
--5----
---6---
-------
-5---3-
-6-9---
--97---
-44+-6-
2--+4--
-8-7---
-4---0-
5-+---2
6-+85--

Generation = 35, Population = 85.
8-8--85
--+-1+2
-3-4---
--+8-5-
0-+----
---6-4-
54-+2-3
56+-52-
-3-5-1-
875764-
22822--
-46----
----2--
-5-4-2-
36662-5
47++42-
-3-841-
-55+5-0
-3-+5--
-9-8-4-
-5-83--
67+-4--
7---685

Generation = 36, Population = 52.
--96---
4-+92+-
2--5--2
4-----5
--++---
-7-76--
--6----
--+----
5--6--6
--6-7-2
---3---
-------
--+----
-675---
--7----
--+----
---9---
76--66-
2-++--5
3-----8
--+----
-8+9--2
8-+8--6

Generation = 37, Population = 68.
87---8-
5----+-
-3-6--3
57+--56
0-+---7
4---74-
--7-2--
56+---2
-3+--17
87----3
------1
--69---
--+----
77-67--
-------
-7+----
33---1-
-7-+77-
-3++--6
49-8-49
1-+----
-9--4+3
-6--687

Generation = 38, Population = 95.
-89-495
6+-92+-
245-104
-8--167
-3++308
57-7-5-
--8-3-3
67+85-3
54-6228
9------
2283-12
-4-+0-4
4-+62--
887782-
3-762--
--++-2-
44-9-23
--5----
-4-+-07
---9-5-
2---3--
-+-9-+-
87+8-9-

Generation = 39, Population = 88.
--+6-+6
-+-+-+2
--662--
--+-2-8
-4-+4--
6--8-60
-49-434
-8+962-
6-+-3--
-76-7--
-3--22-
25-+-25
5---3-5
9----32
468--3-
---+43-
55-+--4
77-+---
2-++--8
49++36-
---8-0-
6+++4+3
98---+7

Generation = 40, Population = 20.
--+----
6---2--
---7---
--+----
--+----
-7-9---
-------
-------
---6---
-------
-------
-------
-------
--7----
--9----
-------
-------
8-5-7--
---+---
--+----
--+----
-+-+---
---8---

Generation = 41, Population = 46.
88-64--
-++--+-
2------
-8+----
--+----
6-8-7--
-4-+---
---9---
--+-3--
---7---
-------
-------
--+----
-887---
-6+6---
--+----
5-9-4--
---+-7-
2-+----
-9+----
--+----
6-++4--
-8+96--

Generation = 42, Population = 54.
9-+75--
6-+---2
-4---0-
-9-8---
0--+4--
-799-6-
--9+---
-8-+---
-4---2-
-------
---3---
--6----
--+----
9---8--
4---2--
4---4--
--++---
--5-7-0
-4+--0-
-+++---
2---3--
-+++-+-
-9++-+-

*** Life<FredkinCell> 8x61 ***

Generation = 0, Population = 20.
-0---------------------------------------------0-------------
-------------0-----------------------------------------------
-------------------------------------------------------------
---------------0------0--------0-000-----------------------0-
-------0-----0---0-------------------------------------------
-----------------------------------0-------------------------
------------0---------------------0-------0-------------00---
-----------------------------------------0-------------------

Generation = 10, Population = 165.
---0-2-0-111-40--2--------------0---00-110--0--------01--410-
---0----------00---0--10-011--01--1--0---21--------0---2---1-
-----1-4-2014301-1-0-2---1------1-3-1--11-3-0---------1-4532-
---------1--1--122--2111-3--------0333-403--10---0---------1-
-0-010-4-2--3-------1-----00-------------------1000-----1-0--
-------1---0--0--1--1-0-0-12--2-0-5511-0--00-1---1-0---0-1-2-
--11-100-1---2-1-10--11-01--0---0---1---0---001322431--24--02
-----------0----------0----0------1--------0---2-2-0-------2-

Generation = 20, Population = 168.
-----3---2--3--------1-0---2-3---133------33---3---3---259-2-
-----3-----0------3------323--17-8-4-334-2---------4---2---4-
--03-2-7-2-3-6---61--7----0-1--2--------22-1---2-5-2------36-
--0------204-813-3-4-325-6-5---8--1------43--51------402-2---
-0-4----1--3-6--34-1-----2-0-132-2---3--------34----21-----31
-1---------1------26--30-124--4--297--50-5---3-3---------2---
1333--1--1-3-41--33--2--0-1-4-2-1---31--22--3--5-4---31---7-4
------0------2---32--13------2-3-14--123-5-2-4---31--1-----3-

*** Life<FredkinCell> 24x31 ***

Generation = 0, Population = 10.
------------------0------------
-------------------------------
--------0----------------------
-----------------------0-------
-------------------------------
-------------------------------
--------------------0----------
-------------------------------
------------------------0------
--0--------------0-------------
-------------------------------
---------0---------------------
-------------------------------
-------------------------------
--------------------0----------
-------------------------------
-------------------------------
-------------------------------
-------------------------------
-------------------------------
-------------------------------
-------------------------------
-------------------------------
--------0----------------------

Generation = 4, Population = 37.
--------0-----0-------0--------
-------------------------------
----0-------0-----0-0----------
-------------------0-------0---
------------------0-----0------
--0--------------0-------------
--------0-------0-------0------
---------0-------------0-------
--------------------0-------0--
0-----0------0-------0---------
-------------------------------
-----0-------0-----------------
------------------------0------
--0--------------0-------------
----------------0-------0------
---------0---------------------
-------------------------------
-------------------------------
--------------------0----------
--------0----------------------
-------------------------------
--------0----------------------
-------------------------------
----0-------0------------------

Generation = 8, Population = 39.
----------0---------0---0-0----
--1--------------0-------------
0---------------0--------------
---------0-----0-------0-------
--------0----------------------
-------------------------------
------------0-----0-0-------0--
-------------------------------
----------------0-0-----------0
----2----20--------------0-----
--------1----------------------
-0---------------0-----0-------
-------------------------------
-------------------------------
------------0-------0-------0--
--------1----------------------
------------------------0------
--0-----2--------0-------------
-------------------------------
---------0---------------------
-------------------------------
-------------------------------
--------------------0----------
0---------------0--------------

Generation = 12, Population = 123.
2-----0-0-----0-----0-0-0---0-0
1-2---0------0---0---0---------
--4-1-----0-------0-0---0-0-0--
-----0-----0-0-------------0---
----1-----0-0---0-0-0---0-0---0
--0-1----01------0-------0-----
0-------------0-0-----0-------0
-0-------2-----0-0-------------
--------3---2-0-----0-0---0-0--
1----30-0----11------0-------0-
----1-------1-----0------------
-0---1--0----0-----0-0-----0---
----------------0-0-----0-----0
--1-1---211------0-------0-----
------------------------------0
-1--0----0--1----0-----0-------
--------------------0-------0--
0---0-0-----10-------0---------
------------0---------------0--
0----0--3----0--1--------------
------------------------0------
0-0-----1-------01-------------
----------------0---0---0------
--0-0----0--0-------0----------

Generation = 16, Population = 39.
--1-----------------0-------0--
-------------------------------
------1-----------------0------
-------2-1-------------0-------
-------------------------------
--0--------------0-------------
----1-------------------0-0----
--------2----------------------
--------5-----------0-0--------
-1------2---3-----0----------0-
-------------------------------
-----3-----------------0-0-----
--------1----------------------
-------------------------------
----0-------------0-------0----
-------------------------------
------------------0------------
-------------------------------
--------1-----------0----------
-----------------------0-------
-------------------------------
---------1---------------------
--------------------1----------
--0---2----------0------1------

Generation = 20, Population = 125.
3---------------0-------0-----0
--5--------------0-------------
----1-----1-------------0-0----
---2-0--1--1-0-----0-------0---
--1-----2-------------0-----0--
22----2-3---21----1--0-------0-
1-----3-1-----------0-0-0---0-0
----11-1-2--0------------0-----
----0---5---3---1-3-----0-0----
-12-47--4---3-1-12----1--0---0-
------------------1-----0------
-0------33---------1-0-----0-0-
----2---2---1-----2-0-0--------
-0------4---0-----0----------0-
0-------------0-----0---------0
-----0-------------------0-----
--------0-----0-------0--------
---------3---------------------
------------1---0-0-0---0-0----
--0---1----------1-0----1--0---
------------------0------------
--0--23------0---2------2------
--------1-------1-------0------
0-0---2--22--0------31-0----0--

*** Life<FredkinCell> 2x60 ***

Generation = 0, Population = 5.
----------------------------------------------------------0-
------0-----0---------------------------------------0------0

Generation = 10, Population = 19.
------------------------------------------------0-0---1---1-
--------0-0-----0-0-0-0-------------------0-0-0--00-0-02-2--

Generation = 20, Population = 23.
--------------------------------------1-----------1---3-----
0---0-----0-----0-0---0-0-0-0-------0--100-1-1-1-3-----5-3-3

Generation = 30, Population = 35.
----------------------------0-3-1---2-1---3-3---1-1---3-2---
--------0-0---------0---0---010--4020-0304--04-50-04-5---3-3

*** Life<FredkinCell> 5x34 ***

Generation = 0, Population = 11.
----0-----0------0----0-----------
--------------------------------0-
-------0-----------0--------------
----------------------------------
------------0----0----00----------

Generation = 4, Population = 33.
0-----202---011--011-000--0-------
----------------------------0-----
---12-----200--0------------------
----------------------------------
----0--01-0--0--001--12---10------

Generation = 8, Population = 32.
-------0-3----2--235--22-3----1---
------------------------0---1---0-
----6-----401--1-------0---0------
----------------------------------
-------2-22---24-0-02-4--4----10--

Generation = 12, Population = 45.
---223-0-42-3--2-4--0----4---010--
--------------------1-------2---1-
1-----00--61--3-2-2-2------0------
----------------------------------
---32313-4-12---104---5526---23--2

Generation = 16, Population = 35.
-0--4-41--4-4----5-72-46--1---1--2
----------------0---1-----------2-
---28--2--+-3--------------------0
----------------------------------
-04-3-3---3------0-2--7-----547--3

Generation = 20, Population = 56.
2----8-2--604324-63--3-82--23--2--
------------1-----------0---3-----
2-33--6----53-5-4---6--1--0-2--0--
----------------------------------
--64-44-4-3--357-063579-277--49355

Generation = 24, Population = 52.
22535952---05----7-92--------243--
--------1---1---0---3-----------3-
--459--5---9---3--4----3-21031----
----------------------------------
44-6468---357----463-8-5--+---936-

Generation = 28, Population = 58.
43536--6-7-175-7-7-+---+3-6-46444-
----1-------3---1-------2---4-----
--66--773-+---54--6-7---0411--10-1
----------------------------------
-6--4----65-87-+6-7-7+-----7---388

Generation = 32, Population = 27.
-------85---995--9--4-7+--------6-
1---2---------------------------4-
----+-----++4----4-----------3----
----------------------------------
----6---6-9---8--57---+-7---------

Generation = 36, Population = 47.
---49----9+--+7--98+-48---7558--8-
--2-----1-------------------5-----
4---+-9---+-5-876-9-95-525------33
----------------------------------
6-----95---6+-+------+-6--+-+5--+-

*** Life<FredkinCell> 65x60 ***

Generation = 0, Population = 25.
------------------------------------------------------------
------------------------------------------------------------
------------------------------------------------------------
------------------------------------------------------------
------------------------------------------------------------
-----------------------------------0---------0--------------
------------------------------------------------------------
------------------------------------------------------------
------------------------------------------------------------
--------------------------------------0---------------------
------------------------------------------------------------
---------------------------------------------------------0--
------------------------------------------------------------
---------------------------------------------------------0--
------------------------------------------------------------
------------------------------------------------------------
------------------------------------------------------------
------------------------------------------------------------
------------------------------------------------------------
------------------------------------------------------------
------------------------------------------------------------
------------------------------------------------------------
------------------------------------------------------------
------------------------------------------------------------
------------------------------------------------------------
-----------------------------------------------------------0
--0---------------------------------------------------------
-----------------------------0------------------------------
------------------------------------------------------------
---------------------------------0--------------------------
------------------------0-----------------------------------
----------------------0---------------0---------------------
------------------------------------------------------------
------------------------------------------------------------
------------------------------------------------------------
------------------------------------------------------------
------------------------------------------------------------
------------------------------------------------------------
------------------------------------------------------------
------------------------------------------------------------
------------------------------------------------------------
------------------------------------------------------------
------------------------------------------------------------
------------------------------------------------------------
-----------0-------------------0----------------------------
-------------0----------------------------------------------
------------------------------------------------------------
-----------------------------------------------------------0
------------------------------------------------------------
--------------0----0------------------------------------0---
------------------------------------------------------------
------------------------------------------------------------
------------------------0-----------------------------------
------------------------------------------------------------
------------------------------------------------------------
------------------------------------------------------------
------------------------------------------------------------
------------------------------------------------------------
------------------------------------------------------------
---------------------------------0--------------------------
-----------------------0------------------------------------
------------------------------------------------------------
--------0---------------------------------------------------
------------------------------------------------------------
--0----------------------------------0----------------------

Generation = 7, Population = 924.
---------------------------------0---0-----0---0------------
--------------------------------0-0-0-0---0-0-0-0-----------
-------------------------------0-0-0-000-0-0-0-0-0----------
------------------------------0-0-0-0011--0-0-0-0-0---------
-----------------------------0-0-0-0000-0--0-0-0-0-0-----0--
----------------------------0-0-0-0012-3-1--0-0-0-0-0---0-0-
-----------------------------0-0-000000-0-00-0-0-0-0---0---0
------------------------------0-00110011-1100-0-0-0---0-----
-------------------------------000000000000000-0-0---0-----0
-------------------------------012122100-002200-0---0-----0-
--------------------------------0000000-0-0000-0---0-----0--
---------------------------------01100-0-0-00-0---0-----0---
----------------------------------000-0-0-0--0--------------
-----------------------------------0-0-0-0--------0-----0---
------------------------------------0-0-0----------0-----0--
-------------------------------------0-0------------0-----0-
--------------------------------------0--------------0-----0
------------------------------------------------------0-----
-------------------------------------------------------0----
--0-----------------------------------------------------0---
-0-0-------------------------0------------------------------
0-0-0-----------------------0-0-------------------------0---
-0-0-0---------------------0-0-0-0---------------------0----
--0-0-0-----------------0-0-0-0---0-------------------0-----
---0-0-0--------------00---0-0-----0--0--------------0------
----0-0-0------------010----0-------00-0------------0-------
-----0-0-0----------002-0-----------000-0------------0------
----0-0-0----------010-2-0--0------1-200-0------------0-----
---0-0-0----------00100-1-00-0----0-00000-0------------0----
--0-0-0----------0100020-1110-0--1-1012100-0------------0---
-0-0-0----------002010300-2000-00-0000000-0-0------------0--
0-0-0----------0-000200030-21101-2101100-0-0-0------------0-
-0-0------------0-001000200-10--0000000-0-0-0--------------0
--0--------------0-000100010----002100-0-0-0----------------
------------------0-00200010-0-0-0000-0-0-0-----------------
-------------------0-000200-----0-00-0-0-0------------------
--------------------0-0010-------0--0-0-0-------------------
-----------0---------0-00------0-----0-0--------------------
----------0-00--------0-------0-0-----0---------------------
---------0-0010--------------0-0-0--------------------------
--------0-000200------------0-0-0-0------------------------0
-------0-00200010----------0-0-0-0-0----------------------0-
------0-000100-100-0------0-0-0-0-0-0-------------------00--
-----0-001000-1-01--0----0-0-0-0-0-0-0-----------------011--
----0-000200-3-1--0--0--0-0-0-0-0-0-0-0---------------000-0-
-----002010-1-1-------0-00-0-0-0-0-0-0---------------012-2-1
------0100-2-0----0--0---00-0-0-0-0-0---------------000-0-0-
-------00-1-0----1-10-----00-0-0-0-0---------------011-2-3--
---------1-0----0-000------00-0-0-0---------------0-000-0---
-------0--0----2-310-1------00-0-0---------------0-0-011----
--------0--1--0-000-1------0-00-0-----------------0-0-000---
---------0--01-100-1------0-0-00-------------------0-0-011--
----------0-00000-1------0-0-0-0-0------------------0-0-000-
-----------0-0-011-----00-0-0-0-0-0------------------0-0-011
------------0-0-00----0110-0-0-0-0-0------------------0-0-00
--------0----0-0--0--000000-0-0-0-0-0------------------0-0--
-------0-0----0----001211210-0-0-0-0-0------------------0---
--0---0-0-0--------0-00000000-0-0-0-010---------------------
-0-0-0-0-0-0------0-0-01100100-0-0-00200--------------------
0-----0-0-0-0----0-0-0-00002000-0-010-010-------------------
---0---0-0-0-0--0-0-0-0-0-000200-001-3-10-------------------
0-0-0-----0-0-0--0-0-0-0-0-0010-010-0-0--0------------------
---0-0-0---0-0-0--0-0-0-0-0-00-002-1-1----0-----------------
----0---0---0-0----0-0---0-0--010-0-0------0----------------
---------0---0------0-----0---01---1--------0---------------

Generation = 14, Population = 1080.
------------------------------------------------------------
-------------------------0------1--3--------00-------0------
------------------------------------------------------------
-----------------------0---0--0--00--1----00--00---0---0-0--
------------------------------------------------------------
---------------------0---0--01-20--02--501--12--0----0-0---0
------------------------------------------------------------
-----------------------0--00--00-01--011-110--0---10-0---0--
------------------------------------------------------------
------------------------01--10--13-421-001-52---24-11--0----
------------------------------------------------------------
--------------------------00--00--11-000-00---11-01--0-----0
--0---------------------------------------------------------
----------------------------0---10--01-200--12--1--0-----0-0
0---0-------------------------------------------------------
---------------------------0--1--000--00-00---00-------0-0-0
0-0---0-----------------0-----------------------------------
----------------------0--0---0-01--3100-0--11----0-0-0-0-0-0
0-0-0---0-------------1---0---------------------------------
--------------------0--10--0-0-0-01-010-0-0--0---0-----0-0-0
0-0-0-0---0---------0---0---0-------------------------------
------------------0--01--000-0-0-00013210-0------0-------0-0
0-0-0-0-0---0-----1---2---1---0-----------------------------
----------------0--10--021-100-001-1111001--0--0-0-0-------0
0-0-0-0-0-0---0-0---0---1---0---0---------------------------
--------------1--00--120-010-0-0-010-110-010-010-0-0-0------
0-0-0-0-0-0-0-2-0-0---3---0---0---0-------------------------
------------0--10--012-300-0-0-0-0-104-110-001-100-0-0-0---0
0-0-0-0-0-0-0-1-0---1---1---0---0---0-----------------------
----------1---1--010-030-2-1-0-0-1-1-131-100--10-010-0-0-0-0
0-0-0-0-0-201-2---3---3---2---00--0---0---------------------
--------0---10--2--120-0-0-2-1-2-2-0-1-001--00--0--100-0-0-0
0-0-0-0--00-11--1---1---2---11--11--0-----------------------
----------01--10--0--010-0-0-0-1-0-1-000--10--0---0--0-0-0--
0-0-0--10--0--11--0---3---10--02--00------------------------
---------0--021-10-00--120-1-0-2-2-101--00--0---0------00---
0-0--01--1---2--11--0---11--13--03---1----------------------
-------1---20-101000-01--001-2-2-001--10--0---0-------01--1-
0--10--0---1---0--10--200-11--01---0---0--------------------
-----0---00--210011120-13--100-101--00--0---0-------00-112--
-01--1---0---3---0--1-1-411-01---1---0---0------------------
---1---00--211-222101212-00--0-1--10--0---0-------01-100-0-1
---0---0---1---2----0-1-2-000--0---0---0---0----------------
-0---10--100-111-103110010-1-----0--0---0-------00-000-0-1-0
-----2---3---3----1---2-3-2--10--0---0---0---0--------------
---20--211-221-021-5010211-2-0---0----0-------01-100-0-2-2-1
---1---1---3---00---0--01--10--00--0---0---0----------------
-00--110-011-110-102-110-000-------0--------00-112-1-2-4-4-0
-0---1--01---20--10--10---1--01--00--0---0------------------
0--011-112-021-224-012-012--0--------0----0---00-0-1-1-1-0-1
--10--00--130--10---1---0---0--11--001-0--------------------
--1--001-002-202-002-000--0--------1---0----0---00-0-0-0-1-0
0-0--0--220-121---2--11---0---2--022--10--------------------
----1--011-312-021-201--0--------1---0---0----0---00-0-0-0-1
----0--00-101-1-0--10--11---0---11--10-0-1------------------
------1--001-111-000--0--------0---0---0---0----0---00-1-2-0
0--------10-1-1-311--131-21---01-010-1-0-3-0----------------
--------0--011-222--0--------0-------1---0---0----0---00-0-1
0-0-0-------0-000-1001-320-101-012---4-1-1-0-1--------------
----------1--000--0--------3-----------2---0---0----0---00-0
0---0-0--1---11-21112011-01---11---1---1-0-0-2-0------------
------------0---00-------1---------------0---0--------0---00
--0---0-0--0---2001131002---0----3---3-0-1-0-0-0-0----------
--------------1----1---1-------------------0------------0---
----0-0-0-0--1-1-100001-1-1--------1-1-0-2-0-0-0-0-0--------

Generation = 21, Population = 943.
-------------------0---------0--------0------------0-0---0--
------------------0-0-------0-0------4-2----------0---0-0-0-
-------------------0---------0--------0------------0-----0-0
----------------------------------------------------0-0---0-
---------------0------00-0-------000------0--0-0-----00-----
--0-----------0-0----021--0-----11-33----2-02---0----0-0--0-
-0-0-----------0------00-0---0---000-----00--0--------0--0-0
--0-------------------------0-1---------0-1---0-0-------0-0-
------------------00------0----0-0----00-0-------000---0--00
0-----0----------0120---12-22-----2--2220-----1--6-42-1--3-1
-0---0-0----------00--00--0--0-0-----0-0---0-0-0-00----0-000
0-----0--------------0-0--1-----0-2-0221--1---2---2-0-------
-------------------------0---0---0-0-00------0--------0----0
--0-----------------00-0------1---0-1-----0-2-----0-00-0--0-
-0-0--------------00-02---00-0----00-----000---0---0--0----0
--0--------------0-00----0-0--1--1-1----1430--1-0-----------
------------------0-------0--0---000------0--0--------------
------------------------0-------2---1---0-0-2---0-----------
----------------------20-0-------0-0--0--0---0-0------------
---------------------0-20------------1-0--------------------
----------------------0--------0-------0-0-0-0---0----------
------------0-----1-----------0-0----342------0-0-0---------
-----------0-----0-0-----------0------00-0-0-----0-------0--
-----------0--0---0------------1------------0-0---------0-0-
----------0-0----0------------0-1-00---0-00----0------------
-----------00-----0---3--------0-1330-1-14220---0-------0-0-
------0--0-------0---050----------10--0--00--0-0-0---00--0--
-----0--0-0---12--0--324---0-------2-5-2--0-----0-0-0120----
--------1----1--1--0-00---0-0-----0-1----0-0-----0---00-0--0
----0--00-1-043-0-2---4----1-------102-2--0------------1-00-
--00-0---03---3---5--0----2-------00-03---0-------0----00-00
-0-00----0--2-1--023----30-2---3-3-01----2-0--0--0-2--0-00-0
--0-------0-1--0-0-------00---0-2-0-------0--0---00-0--0-00-
--------00--0----331--3--------2--------0-------0-00-0--0-1-
------02-00--0-1-01---40--------------00-0-------0--0-0--0-0
-----0-00-----------00-2----0--------1-01------------0-1--0-
------2-------0------00----1-4--------0---------------0-0---
--0----------0-1--1---------0--------------------------2-01-
-0-2----------0----1---------0---0----------------------0--0
--00-----------1-------14--11-0-0-1------------0------------
-12-0---------0-0-----22521-0-----------------0-0------0-0--
--02--0-1------2-------3---00-0-0-2------------0------0---1-
-----0---0------------11-------------00----0-0---------0-0--
0-0---100--0---------1----040-000-0-0-10--01--0----1--------
0----30-0-0-0-----------4-2-1---0--00---0-0201--0-0-0------0
130-1-12---22-------1--31-05-52-0-----00-0-0---2-2-1------0-
00---------3-0----01-0---012-00---010100000----100---------0
0--10-1-----0--0-1-30--0-1----1-0-11-00-0-10--03--0---------
-----1--------0-0-0---0-2-2-0--01-1-0--02-----0200--0-------
1240-10--------2--------23--1----32--00--------1---1-1------
--2-00-1-0-------------1200--0-22---0-021-00-0------0-------
1-1---1-0------------0--0-------010-0--0-00-0-0-------------
00--------------------1-------2--0--23--1-------0-----------
-00-2--------------2-------0-0-0--0----0-1--0--0-0----------
00---------------00-0-----0-000----0210-0-------00----------
--0----0---1----0-10-------00-01----01000-------0-0---------
------0-0-0-20---1-----------01-1----20214-------0----------
------00---11-0--------0-------0-------00-------------------
-----0-0-------------20-2--------3-----------2-------0-----0
---0--00---0--00--0-0101---4----0-0--------00-0-----010---0-
--0-0-2-01134-1-2--1211---2-1----1--------0-03------010----0
--00---00--2---01-0--------0---------------0----------------
-0-0---------0---1-23-0--------------------------0--0-00-0-0
--0---000-000-1--1---00--2-----1-------0--------010--00--1--
-----01-100-11--2-1--1-11-1---0-0-----0-0-------010----00200

Generation = 28, Population = 903.
--0---------------------------------------------------------
-----------0---0--11-321-110-000--35-733--11--1---12--2--10-
0-----0-----------------1-----------------------------------
----------------------3--0-------2---32----1----------------
------------------------------------------------------------
-------0------10-0-0--35-101--37-505-667-51---4---01-310-100
--0-0-----0---------1-------1-------------------------------
------------------1--3----2--0---14--2-3-44----0------------
------------------------------------------------------------
----------11------12-2-1-426-411-627-46--227-521-72---2--+22
0-----0-0-----1-1-------1-------1---------------------------
--------------0--0----1--0---3---0-3-33--3-0-42----0--------
------------------------------------------------------------
--------------21-----040-0-1--21-31--557-531--22-0---21---0-
--0-0-----0-------2-1-------0-------1-----------------------
----------0--1----1--1-------1---3---0-2-63--3-2-20----2----
-----------1-------------------1----------------------------
-------------2---011-----110-0-2--17-422--23-1----01-1----10
0-----0-------2-------5-1-------1-------1-------------------
------0--1----1--0-------0-------3---3---1-0-01--0-0-20-----
-------1-------1-----------0-------1------------------------
---------1---21--0-0-120-----113-2---463-1----10-0---11-10--
--0-------3-------2-------2-0-------0-------0---------------
--0--1----0--3-------1-------2-------1---2---1-2-00--1----1-
---1-------2-------0---12------0-------0--------------------
-----2---11--2-1-30--2-2-132---1--33-2-4-423-3---11-12---1--
------2-------4-------7-------1-1-------2-------1-----------
11----1--1-------1-------3-------0-------3---5---1----2--10-
-------2-------2---13--1---10------1-------0----------------
-0---22--1-2-54--3-4-46--3-1-011---2--85-3-1-13-04---0-----2
----------3-------7-------2-0-------1-------0-------0-------
--0-32-------2-------4-------2---3---2-------1-2-----11---2-
-----------0---12--1----4--1---22------0-------0------------
-11--1-1-20--2-2-46--3-2-32--1-3-133---2--3-11-1-1-------1--
------3-2-----4-------4-1-------3-------1-------0-----------
0-----0--2-------3-------0---1---5---2---1-0-2---0-0--1---1-
--3--------01--3----2--1----2--3---202-----1-------1--------
01-3-00--2-5-12--4-0-32--0-4-30--2-1-23-1--0-------0-1------
----2-----1-1-----2-1-------2-------12------0---------------
--0-------2--4-------1---0---3---1---0-0-----1-0-20----3--1-
2-----20--------1--2----6--0----12-3---211-----1-------1----
-11-02-0-01--2-2-52--2-4-02--2-2-23-01-0-3-----1-------4----
2-------3-----0--------37-------01------31------------------
------1-------1--2---1---5---3-----0-----2-3--0----1-31----0
--621-----1---------1--7----41-1----11-4---302-----0-------0
25---41-11-5-21--2-9-32--4-5-53-22-1-11--3-2-1-----1-2-----1
--3-3--------------3-------232------12-------0--------------
----------1------21--1---4-----2-------3--1----5--0----4-5--
1-----1-1-----1----0----40-3----22-4----21-----211-----1----
-25-44---34-43-2--2--3-2-52-22-3-64--3-1-14----4-------2-3--
1-----3-------04-------323-----451-------2-------0----------
-------------21------01------5-----2--1--1-3--0----0-------0
--412-----1-1--0--4--2-3----23-6----35------00-----000------
02---01-11-6-----3----2--0-3-10-01-0-20----1------------0--1
--3--------2------2302-----203-----2-3-------0-------0------
---------0-------11--1---20------30--2-3--1--0-1-------2---0
1------00--0--4-51-2--5--4-2----12------27------10-------0--
-13-10-0-------------1----0--3-1-31-1--1------------0-------
-------0---1---020----0521-------4-----3-3-------0-------0--
-----2-------4---1---20--2---2---4---30--1-2-----0-2---3-1--
----3--5---556-0--3-45-3--3--2------05------15-----2-5-----1
01-3---------------------2----0----0----0-------1-----------
---4---2---130-6---543----2--1-------3-----1-1-------0-----2
---------0---3---2---2---3---2---4---2---2---0-1---0---1---1
---0---130-0---234-3--4-41----1--3------12-----3-3-----3-3--

*** Life<FredkinCell> 22x30 ***

Generation = 0, Population = 22.
--------0--0------------------
------0-----------------------
------------------0------0----
---------------0--------------
----------0-------------------
---0-------------------------0
------------------------------
--------------------0---------
------------------------------
------------------0---------0-
------------------------------
---------0--------------------
------------------------------
------------------------------
----------0----0--------------
----0-------------------------
-0----------------------------
------------------------------
-----------------------0------
------------------------------
--------------------0--0------
0-----------0-----------------

Generation = 5, Population = 241.
--0--0--012--00-00-0----0-0--0
-012-0--101-0-00--0--00--0--01
--00--00-0-300-0---0-220----02
------0---0-0-----012-0------0
-----020-00200-0--000----0-00-
-----0-1---0--0--020----02-110
------00-0-----00010-----1000-
--------0-----01100----0------
---0-------0--000-----0-----00
--0-0--------0-------0---0-011
---000---0-0-0--0---0-0-0---00
-0-0110---0-0-00---0-0--------
0-0-00-------0----0-0-------0-
-0----0----0--0--0-----0---0-0
0----0-0000-11-0----0-0-0---0-
-----0002100--0----00---------
0-0-0-0-00--0------0-00-0-----
-----0----00-0-0---00--0---0--
----0----0-0--0-0-0-1-----0-0-
---0-0----00-0-00---0--00-----
--------0---0--010022213100-0-
-----0-0-0-----010-00--00--0--

Generation = 10, Population = 198.
-122-2--------1-1-11-0----01--
432--2-0-0--2--1----1--0--10-4
1-01-----------22-------0---04
0----012-2---01--10----0-1--02
0---1---0-25---1-0-----0--1---
-0---3-22---10-1---1-1---5--1-
-00---3--0420----0-------1----
--01--1----2--0-----00-01-----
---0--1-01-1-0-2--0----0-1----
-2-------------1-01-----0-1---
-2------0-10----0----0---0-0--
1-----1---1-00-1-1-01---0-0--0
--0----00---1-----0--11-------
-----0----1---00-0--1------0-0
0---0-----0-----0---20---0----
0-210-------0---------0-----00
--10---0---0---1-----32--0---0
0-0------1------0---------0---
-0---0---1--11-1-0--11-1-1-00-
------002--0------0-0-------1-
---0------0--123-1-----3--22--
----0----11-------0-0-0-------

Generation = 15, Population = 354.
--555-2--3-32-3-2--22--52--122
--454-401-222--2-0122140-13--7
-0-6-----225-3--73-20-3-102--7
0--3--23--1-2-2-0-22-13-020234
--1111512337-2--111-01---33--2
11321-34--021--4---2---0--1--3
--01-0-------022-131-10-1-22-0
3---1--2--12-0---3---103---1-1
220-2-2-131222-400-0--030--1-2
--1-1--12-53---2--------1112-3
1--002-4-1--211410-1--2---0---
-1-022-11-3-1--3-2--41--0-0--1
----21--24--3---320-33-4-1120-
------4--0-202--31------0-1-1-
------20-3-32451----23---30221
----10-1422422---3-1201--1--1-
---0013--1501--10--3-43620--1-
--20001-1-1--22101304-1---0112
-010100---2--2-13--1330-1-0-20
101021--5121103---2-30---000--
00100--01-1--2261114-----44411
-0100-0--4----1---00------00-0

Generation = 20, Population = 239.
-2--8535-423--3--------6----24
6---5---3--2-1-2---2--6---4-1-
33-7-2----3--4-----3--332-----
2---04------44------2---12-2--
20-1--5-2-3----22--31-41------
---24--4-0-54-2--1-5---05-2-14
--0------14--------2------4---
4-2-22---1-----1----3---42--33
-3--2-----------1-303--60322--
----1--13--3-2-32-103-2--4-53-
----1-1-1-25--15---1------10-2
31--5----1331------4-2--1----3
-2---1--4--3-12--2--5425-----2
1--1--7-416-1---3---------1--0
5---3-3-2-365-63--23-312---5--
-----14-------0-3-1-----21--2-
-0-------15-12-3-14-----32----
---1002---2--23-0---6-------12
---01---4-4---01-1---61--20---
--12------22----3--0--1-1----4
1--11-41--3--23-----44--37--2-
2------1-52-3--04---1----0-3--

Generation = 25, Population = 318.
-----------53-43---430--5--43-
7---74-0-15--62---2-3------3--
48-7-3---53804-----5---3-2--1-
2-2-1-3-4422--2--2-3---4-503--
2312---128-7--2531241---28--3-
--345-4---3-5--5--66-3-2-+----
0-1--08132672---2--3-21-3-----
-0--5-----3512-1----------2-4-
2-05-3--3426-30-----521-53-3-3
-633111---9--2-3---043-3-55-5-
-4-0---6---8-246105-034-01---5
4-1--33---4-2--8--2-5-0--3----
-3-14--4-646-----31--7--2333--
2-3320---17-2--5-124-2-00-111-
+13---3-4-----6--1282-1-26-5--
-043-----54-33-----130--4-2-3-
---222---4622-----46544755--1-
-----0---221-25532--60--10236-
0023-1-3544---1-5--3---22--521
-2--22--734-105---60--3-----3-
4-21-17-6----35--23-463--8-5-2
-15-0--2363--1-252--41-331-32-

Generation = 30, Population = 323.
---+--3718--8-66---9-1-76-2549
---6+55--368----14--65--5-----
-9-73-----49-7--84-755----6--+
-353-74----76653------552-1---
--12---2--5+54-+-2-5--5---5---
34-76-643---624---8---3-9+6---
0--2----5---712-225-1--4--+-44
515-756-44---3------+---53--6-
25-5-532--2--6-5-2---3-+83-333
-6--1-454----256------452678-7
-5152--9522+--4-1-6-3572--6-36
7442--6----32---14---554142---
--2-624-5--8--42-431+-26365---
--3542-3-18---2---277--31---25
+4--4---7---9-762--+3825-+-8-3
----6---55--3---4-1-40525-20-1
3162426-----2-6-23--6--8-71---
---2-15--443--8-5-8-70-----6-5
3---2136------13--2-6---23-62-
-5-6-5--+--423623-61-1--742--4
-23--1--756--45-6-3-------88-3
-2-----3-96-5-475--5--3-4-2333

Generation = 35, Population = 309.
5-9------8-6867853-+---8863-4-
-4---56-3-7-372614-5-6+18----+
6+----0-3--+--398-69-56833-31-
2-6--8-3--6---5-3-43----48-65-
-5--4-6-6-7+65-+62-564--4---5-
---8-5-5-----3----9-4454---855
-----1+--2-+-12----5--5---+545
-2--877-5-9-3-624-21+-135-2-6-
2--545-274-68-36----53--852---
--553--5-0+---6-----46-----85-
--26--197-4+54------6-9-4---46
-----483-4-4--1+1-3-7-5525-1--
3----3----6+6-4444--+--7--5---
-0---2----94---6522-87-4-9---5
----435--63-----437--9-7----4-
---3-6757-453-144-1-517----0--
4--35-----8-4-7--67+------1-13
-14-52--26-45-8--59---------87
-226-148666---25---67-----27--
2-2-5-8---5-2-6-4272-1---522-7
-3442--2+-6--466------3----8--
--5+1-0--+6-53---2-5---7----3-

Generation = 40, Population = 221.
--+----8-9489-9---4-9----7-55-
----------8-5-3616--8----3-76-
-+1936---7-+-8----7-7----4----
-----+83--9--6-3--485--86-3-+-
-8-6-2--9--+---+-------2--6-63
----+7------+----4-8--6-++-+5-
-4------5-+++1-+-378--6-----55
7-63----6--5----5-5-+1-45-4---
--1--------------3-28-3--7-3-5
--6----5-0+----7--2---763-----
-7-9---+--5----+-1--------624+
8--2-----5-6--2+--3--------15-
3--2-6-45-6----44-54+--8-----4
-1--------------6--------9-2--
+--2---2-75-+---5--+4+----4-4-
--96----+-7---1---1-7-----2-64
--6--7--5-+------78+-6---+22--
--66---5-66----8-------1-----9
-23--3-+--7--8-8----8--6-3----
-6-6--9----6---3-2-5---4------
646-----+-75-7--6------9-+-+-4
----1-3-7---8-------------3-3-

Generation = 45, Population = 323.
--+-+-4-4+---+-99-5++----+85--
95---+---3---+-8-----6---46---
--394-24----4+-++-8+----59+5--
5---2-+--8-+9--53--8-388--6-++
--178486-+9-7--+-596+47---9---
58-9+8-6---9--6+87--7-------+6
--7------2+++2-+-48++-+-56-75-
-4-6---677--57-48482---7--529-
-7--5-5-+---8--94---+4-------5
---74--741+65--9-73-96-----+7-
--3+3-2-+8---67+-2-----97-+49+
+5829993--965-3+456-8-98---254
--5-97----7++76---------4-7406
6348439--5+-322-634-+947---23-
----64-3+--++--+-48+7-784-6+-8
-----9-++-9---357-34---------5
6-95----87+85---5--++6-+-+-5--
-29-7---498-6----6+-----34----
3---5--+9++1---8--29--------4-
2-47-9+6----57+-5-8673---9357-
76---5+8-+----+--4667-3+-++---
67-+--5--+--9-4--51--1----344-

*** Life<FredkinCell> 56x23 ***

Generation = 0, Population = 30.
-----------------------
-----------------------
---0-------------------
-----------------------
0-0--------------0-----
-----------------------
----0------------------
-------0---------------
------0----------------
-----------------------
-----------------------
-----------0-----------
0----------------------
-----------------------
-----------------------
----------------------0
------0----------------
-----------------------
-----------------------
-----------------------
-------0---------------
-----------0-----------
---------00------------
-------------0---------
0----------------------
-----------------------
---0-------------------
-----------------------
-----------------------
-----0-----------------
-----------------------
-----------------------
-----------------------
-0---------------------
-----------------------
---------------------0-
-----------------------
-----------------------
-----------------------
-----------------------
-----00--0-------------
-----------------0-----
-----------------------
-----------------------
-----------0-------0---
-----------------------
-----------------------
-----------------------
-----------------------
------------0----------
-----------------------
-----------0-----------
-----------------------
-----------------------
-----------------------
0----------------------

Generation = 5, Population = 309.
--210-----------0-0----
0-000--0---------0-----
---0-0010--------------
0-0---010----0-------0-
-----0-0----0-0-----0-0
--000---0----0-------0-
-0010--0-0-------------
0-010---0-0------0-----
---0-----0-0----0-0----
----0-----0------0-----
---0-0---------0------0
--0-----------0-0----0-
-0---0---------0------0
--0-0------------------
-----------0------0-0--
0-0----0----0----0---0-
---0--0-00-0------0-0--
0-0----0-00-0----------
--------011--0--------0
0--0--0--0000-0------0-
-00-00----0-00-0------0
0----00-0--0-0--0------
--0--11--1--121--0-----
--0000000-0--00-0-0----
-0----0-01-0-----0-----
--0---0--0--0----------
-----10--11--0---------
0------0-00-0-0--------
-0-------0---0---------
0--1----0-0------------
--0-0----0-----------0-
---0----------------0-0
-0-------------------0-
0-0--------------------
-0---------------0---0-
-----00--0------0-0-0-0
-0--01100-0----------0-
0-0--00--0------0-0----
-0---------------0---0-
-00--0---000-0-----00-0
01212-1-12-1-10---0-0--
-00--0---000010----10-0
-------------0-------0-
-----000-0-------------
----01-1--0-0----1-----
-----000-0-0-0--0-0----
-----------00----0-----
----------010------0---
--------0-020---0-0-0--
-------0-0-2---0-0-0---
0------00------00------
-0----0-0-----0-0------
-------0----0--0-------
-0---------0-0---------
0-0-0------00----------
-0---0----0-0----------

Generation = 10, Population = 293.
1--3----0--0-----0-----
-----------1-----------
106322--0-1--0-0---0-0-
---------2---0---------
-1-640-2--3------0-0---
-----------0---0------0
0--2----00-----------0-
-------------0---0--0-0
0--11---0-------0------
---2-----------1---0--0
-01--0-00-----0--1-----
-0---0-----0-----2---0-
--00012-2------0---1---
---0---1-1----0-0--0---
0-----0----00-1--0-----
-----0---1--1-100-0----
---0----100-0---1------
-------0---0-01-0------
00---01-------00-------
---1-0---0---0-----0---
22-1---------0----0----
-1-1---0---0-----1----0
---00---1-------2--00--
-1---3-0------------1-2
-132--0---10-----00----
---2-1----------------0
-2---2-012---0---------
-----------1-0-----0---
---2-0----11-----------
---1-----1-0---0-----0-
1----00-13-00----------
-1---1---0---0-0-0-----
0-0-1---1310-----------
---2-------0---0-0-0---
00----1--1-0-------0---
---------0-1-----0-1---
---0-----0---1---1---0-
---1---0-----0---0-----
0----------1-10--0-0---
-2---0---0--0--------1-
1-2--------11---1--1---
---0---0--1---1----3-2-
0--0-------1-20--0-----
-0----------20-----0-0-
-0---3---1---0---------
0----------3---------0-
---0-10--1-2-----------
--0-0------------0--0--
---00---1--2-----------
---1--2--------2--1---0
-----00--0-1-------1---
00--10-----1--------10-
---------0---0---0---0-
---0--0-00--20-----1---
-----------1-------0---
----0------21-0--------

*** Life<FredkinCell> 1x27 ***

Generation = 0, Population = 10.
-00--00---0----00--0--0---0

Generation = 2, Population = 9.
1------1----001---1-11----0

Generation = 4, Population = 16.
1-1--1---0012-32--103-100-0

Generation = 6, Population = 10.
--111---1201--5---3------0-

Generation = 8, Population = 13.
123-32-23203-1------4--0---

Generation = 10, Population = 11.
----54--3-0-31-3--3--33--0-

Generation = 12, Population = 13.
--42---43--4535321-1----2--

Generation = 14, Population = 12.
23--7-2----65---2-31-44---0

Generation = 16, Population = 15.
4--47-2-421--4--2253-6-1--0

Generation = 18, Population = 16.
45--95-5--3-7-6-425-4--1310

Generation = 20, Population = 14.
6----725633----3---447-331-

Generation = 22, Population = 15.
6-55+92--35874----76-----32

Generation = 24, Population = 17.
-6-5-94--55-767353--58-44-4

Generation = 26, Population = 11.
-6--++----7--6--55---+-664-

Generation = 28, Population = 12.
--7---656--99-8---9--+5--65

Generation = 30, Population = 9.
6----+8-8---+68----8------7

Generation = 32, Population = 16.
6-75+-+58--++-+466---+--6-7

Generation = 34, Population = 10.
-6------+---+--468+---786--

Generation = 36, Population = 13.
---5--+------7-668+9-+9-887

Generation = 38, Population = 11.
-6--++--+--+-7+-6-+--++----

*** Life<FredkinCell> 12x5 ***

Generation = 0, Population = 18.
0-0--
0----
-----
-0---
-0---
---0-
00--0
--0-0
----0
--0--
0-00-
00---

Generation = 1, Population = 32.
1--0-
100--
00---
010--
0100-
0-0--
11--1
0----
---01
001-0
10-10
-1-0-

Generation = 2, Population = 28.
2---0
211--
110--
1----
12-10
--1-0
22-0-
1--0-
-0-1-
-12--
-10--
-2-1-

Generation = 3, Population = 38.
3-00-
32-00
22-0-
-1000
-302-
-0--1
-301-
200-0
-1021
02---
12---
030-0

Generation = 4, Population = 38.
401--
4-111
-30-0
-21-1
141-0
0-10-
-4121
3-1-1
021--
-3-00
23--0
-41--

Generation = 5, Population = 30.
----0
5-2--
--10-
-32--
-5221
1-2-1
25-3-
4--02
-3---
0-21-
34--1
--210

Generation = 6, Population = 36.
4-10-
--3-1
2-210
1-301
-----
2-3-2
36141
501-3
0---1
1-32-
-5012
0-3--

Generation = 7, Population = 32.
---1-
-2--2
3-321
2--1-
---2-
30403
47--2
61-0-
----2
23--0
36-23
-44-0

Generation = 8, Population = 27.
-01--
---13
4343-
33---
-5---
-1-1-
58-43
----3
----3
--3--
-7034
--511

Generation = 9, Population = 24.
412-0
5-3-4
-4---
-4-1-
--22-
---2-
6----
61---
--124
--4--
38-4-
---2-

Generation = 10, Population = 39.
----1
6-4-5
-5-31
35321
--331
3--33
7--4-
-2-03
0---5
2-520
49054
04531

Generation = 11, Population = 33.
4-212
-2-1-
46--2
464-2
----2
41-4-
8-1-3
6----
1-12-
-3-31
5+--5
-564-

Generation = 12, Population = 34.
-1323
63425
-7--3
-75--
--3-3
-24-3
-8-4-
-2-03
232--
245--
6+-56
---5-

Generation = 13, Population = 30.
--43-
7-536
--4-4
4--2-
-5--4
4--44
8-153
--1-4
----5
3---1
--0-7
0566-

Generation = 14, Population = 33.
41---
--64-
-75-5
----2
1-335
5---5
9--64
6220-
2-22-
-453-
--158
1-77-

Generation = 15, Population = 30.
52-3-
73-5-
48-36
47---
2-4-6
-244-
-----
7-31-
3-335
-5-4-
6-2-9
-----

Generation = 16, Population = 29.
---43
84---
59--7
5--2-
3-53-
-355-
98---
8----
43--6
3--51
-+-5-
1-7-1

Generation = 17, Population = 33.
52454
--65-
6-5--
---3-
45-46
5-6-5
---6-
-2--4
543-7
455--
6-269
-5-7-

Generation = 18, Population = 28.
6-565
--7--
--63-
-7-4-
-65--
63--6
98--4
-3--5
----8
566--
7--7+
--78-

Generation = 19, Population = 33.
----6
84-56
----7
58-52
-76-6
-4-57
-916-
-431-
5-339
--7--
8-2-+
158--

Generation = 20, Population = 29.
62--7
95-67
---3-
6-563
-87--
6----
9+27-
---2-
-444+
-6---
9+---
---81

Generation = 21, Population = 30.
--5-8
-----
-9--7
-8-74
49--6
74-5-
----4
8-3--
5--5+
---51
+-27+
15892

Generation = 22, Population = 26.
-2---
-57--
6+6-8
---85
-+747
----7
-+2--
9----
64---
---62
++--+
--9+-

Generation = 23, Population = 37.
63---
-6-67
7+-39
6-5-6
4+-58
----8
-+374
+43--
-545+
--77-
++-7+
1-++-

Generation = 24, Population = 30.
7-568
9----
--6-+
-----
-+769
7-65-
--4--
+-42-
---6+
56-82
-+-8+
25+--

Generation = 25, Population = 29.
8-6-9
+6-6-
7+---
-8-8-
-+87+
-47--
-+-7-
-----
-5-7-
6--93
+-2--
36+-2

Generation = 26, Population = 27.
93-6-
+-7--
-+6--
--59-
4+98+
75-58
9+4-4
-----
---8-
7---4
-+3--
-----

Generation = 27, Population = 33.
-46-9
+-8--
-+7--
686--
-++--
86--9
-+575
+4425
6-4--
--7--
-+48+
-6+--

Generation = 28, Population = 33.
-5---
---67
7-83-
7-79-
4+-8+
977-+
9+686
-5-3-
75--+
7---4
+---+
3---2

Generation = 29, Population = 28.
9-669
+6--8
8--4-
-8-+-
5----
+----
--79-
+-445
--4-+
---9-
-+-8-
46-+3

Generation = 30, Population = 32.
+57--
+7-69
9+85-
7--+6
6--8-
+775-
-+---
--55-
755-+
-6-+-
-+---
5---4

Generation = 31, Population = 27.
-68-9
+8--+
++-6+
---+7
-----
-8--+
-+7--
+5-6-
86---
--7--
-+48+
---+-

Generation = 32, Population = 30.
--9-+
-9---
----+
787--
-+-8-
+9-5-
-+8-6
-65-5
---8-
768-4
++59+
-6-+-

Generation = 33, Population = 32.
-----
+----
+-86-
898-7
6-+9+
++76-
-+-97
+--66
8-5-+
-7--5
--6+-
-7++-

Generation = 34, Population = 32.
+----
+986-
-+-7-
9-9-8
--++-
-+87+
9+8+-
+---7
96-8-
--8-6
-+---
58+-4

Generation = 35, Population = 31.
+-96-
-+--+
++-8-
-9+--
6-+-+
----+
-+9-7
-656-
-75-+
77-+-
-+6--
69+--

Generation = 36, Population = 32.
-6+7-
++-6-
++8--
9---8
-++-+
++-7-
9--+8
+7-77
-8---
88---
++---
7+-+-

Generation = 37, Population = 33.
----+
-+-7+
++9-+
+9-+9
6-+++
--88+
-+9+-
-----
9-58+
-98--
++6+-
----4

Generation = 38, Population = 33.
-6--+
-+88+
--+--
+---+
7+--+
+-9--
9++--
+7--7
-8--+
8-9+6
++7+-
7++--

Generation = 39, Population = 32.
+7--+
+-9--
+-+--
+-+++
8+-++
--+8+
++-+8
-8-78
99---
9--+-
++---
-+---

Generation = 40, Population = 29.
-8-7-
-++8+
----+
-9-+-
-+-++
-++-+
+-++9
+----
--5-+
-99-6
--7+-
-++--

Generation = 41, Population = 33.
+9+8-
+--9-
--+8+
++-++
8-+--
-----
++---
+8-7-
9-6-+
9+++7
-+8+-
7+---

Generation = 42, Population = 23.
----+
+-+--
--+--
-+---
9+--+
-++--
--++-
+-5--
--7-+
-+-+-
++9--
8--+-

Generation = 43, Population = 29.
+-+8-
--+9+
+-+8-
-+--+
++-+-
----+
+-++9
----8
9-88-
-+---
-+++-
9---4

Generation = 44, Population = 25.
-----
-++-+
-+--+
++-+-
+---+
-++8+
--+-+
---79
-999-
-++--
---+-
--+--

*** Life<FredkinCell> 32x3 ***

Generation = 0, Population = 21.
0-0
-0-
-0-
---
--0
---
---
---
0--
---
-0-
---
---
---
---
--0
---
-00
-0-
---
--0
---
000
0--
---
--0
0--
---
0-0
---
0--
---

Generation = 9, Population = 47.
-2-
030
132
--0
132
-2-
-01
-0-
---
002
--2
---
---
011
--4
--1
141
---
32-
-32
---
--1
-14
21-
-1-
--3
1--
-0-
-1-
001
-1-
-01

*** Life<FredkinCell> 43x47 ***

Generation = 0, Population = 5.
--------------------------------------------0--
-----------------------------------------------
-----------------------------------------------
----------0------------------------------------
-----------------------------------------------
-----------------------------------------------
-----------------------------------------------
-----------------------------------------------
-----------------------------------------------
-----------------------------------------------
-------------------------------0---------------
-----------------------------------------------
-----------------------------------------------
-----------------------------------------------
-----------------------------------------------
-----------------------------------------------
-----------------------------------------------
-----------------------------------------------
-----------------------------------------------
-----------------------------------------------
-----------------------------------------------
-----------------------------------------------
-----------------------------------------------
-----------------------------------------------
-----------------------------------------------
-----------------------------------------------
-----------------------------------------------
-----------------------------------------------
-----------------------------------------------
-----------------------------------------------
-----------------------------------------------
-----------------------------------------------
-----------------------------------------------
-----------------------------------------------
-----------------------------------------------
-----------------------------------------------
--------------------------------------0--------
-----------------------------------------------
-----------------------------------------------
-----------------------------------------------
-----------------------------------------------
-----------0-----------------------------------
-----------------------------------------------

Generation = 8, Population = 20.
------------------------------------0-----0----
-----------------------------------------------
-------------------------------0---------------
--0-------0-------0----------------------------
-----------------------------------------------
-----------------------------------------------
--------------------------------------------0--
-----------------------------------------------
--------------------------------------------0--
-----------------------------------------------
-----------------------0---------------0-------
----------0------------------------------------
-----------------------------------------------
-----------------------------------------------
-----------------------------------------------
-----------------------------------------------
-----------------------------------------------
-----------------------------------------------
-------------------------------0---------------
-----------------------------------------------
-----------------------------------------------
-----------------------------------------------
-----------------------------------------------
-----------------------------------------------
-----------------------------------------------
-----------------------------------------------
-----------------------------------------------
-----------------------------------------------
--------------------------------------0--------
-----------------------------------------------
-----------------------------------------------
-----------------------------------------------
-----------------------------------------------
-----------0-----------------------------------
-----------------------------------------------
-----------------------------------------------
------------------------------0---------------0
-----------0-----------------------------------
-----------------------------------------------
-----------------------------------------------
-----------------------------------------------
---0---------------0---------------------------
--------------------------------------0--------

*** Life<FredkinCell> 2x28 ***

Generation = 0, Population = 7.
-0--0--------0--------------
--0--0-------0-0------------

Generation = 9, Population = 27.
1---31-02--12701----0200----
1---223-2--2050-0---01--0---

*** Life<FredkinCell> 2x1 ***

Generation = 0, Population = 2.
0
0

Generation = 2, Population = 2.
2
2

Generation = 4, Population = 2.
4
4

Generation = 6, Population = 2.
6
6

Generation = 8, Population = 2.
8
8

Generation = 10, Population = 2.
+
+

Generation = 12, Population = 2.
+
+

Generation = 14, Population = 2.
+
+

Generation = 16, Population = 2.
+
+

Generation = 18, Population = 2.
+
+

Generation = 20, Population = 2.
+
+

Generation = 22, Population = 2.
+
+

Generation = 24, Population = 2.
+
+

Generation = 26, Population = 2.
+
+

Generation = 28, Population = 2.
+
+

Generation = 30, Population = 2.
+
+

Generation = 32, Population = 2.
+
+

Generation = 34, Population = 2.
+
+

Generation = 36, Population = 2.
+
+

Generation = 38, Population = 2.
+
+

*** Life<FredkinCell> 23x46 ***

Generation = 0, Population = 14.
----------------------------------------------
----0------------------------------------0----
------------------------------0---------------
----------------------------------------------
-----------------------------0----------------
----------------------------------------------
---------0------------------------------------
----------------------------------------------
----------------------------------------------
---------------0------------------------------
-------------------------------0--------------
---------------------------------------0------
----------------------------------------------
-------0---------------------------------0----
----------------------------------------------
------------------0---------------------------
----------------------------------------------
----------------------------------------------
----------------------------------------------
----------------------------------------------
----------------------------------------------
-------------0--------------------------------
----0--------------0--------------------------

Generation = 9, Population = 174.
--0-----0-0-0--0-----------------0---------0--
-0-0-----0-0-00-0-----0------0-00-0---0---0-0-
--0---------0--0-----0-0----2---12---0-----0--
---------------------00------000-----0--0-----
----0--0------------0-0------0-1----0-00------
-0-0-00-0--------0---0--------0------0--------
0-0-0--1--------0-----------------------------
-0-----------------0--------------------------
----0--0----------0----0-----------------0----
---0-10-0-------------010-----0--------00-0---
----0--2--------------010----0--------0-00---0
-----------------------0-----0--0------0----0-
-------------0-0------------0-00-0---------0-0
----0----1--0---0--0---------0--0-0-------0-0-
---0-0--0----0-0--0-0-----0------0---------0--
-----------1-------------0-0------------------
---0-0----0--0-0--0-0-----0-------------------
----0-------0---0--0-----------0--------------
-------------0-0--------------0-0------0------
-------------------------------0------0-0-----
-----0-0-------------0-----------------0-0----
--0-0---0--00-------0-0----0------------0-0---
-0-0-0-0--0221-------0----0-0------------0----

*** Life<FredkinCell> 10x12 ***

Generation = 0, Population = 26.
--0-0-0-0--0
-----0---00-
-----0-00---
0--0-----0--
0--0-----0--
------------
-0----0-----
-----------0
--0------0--
0-0--0-0----

Generation = 5, Population = 61.
-01----0-1--
--0-0-2022--
---1-30-3111
-1-12-040---
20-1--------
-0-1-0-----1
-14--00-1010
--4--1-10-01
2-211--1-00-
3-3420200-01

Generation = 10, Population = 58.
-31---1-564-
12-10332----
-432352-622-
--------0---
-1530---1-1-
-02---0----4
5---43-2-2--
0---16020-1-
3--4132223-1
-----03---16

Generation = 15, Population = 56.
6---6-62-77-
-4312--44--5
-7--5---6--4
--333-3--343
6-------3--1
-0-4---0--37
7-8-4334-26-
-254--12----
--7--3--7--4
-13-7--2313-

*** Life<FredkinCell> 16x29 ***

Generation = 0, Population = 15.
--0-----------0--------------
----------------0------0-----
-----------------------------
---0---------------0----0----
-----------------------------
----------------------------0
-----------------------------
-----0---------------------0-
------------0----------------
---------0-------------------
-----------------------------
-------------------0---------
-----------------------------
------0----------------------
-----------------------------
--------0--------------------

Generation = 7, Population = 211.
---0-0---01----0-0--2000--00-
--0-0---00-01-1---133-2221231
-0-0---0-0100--0--1--0-00-0--
0-0---0-0--0-1--121---2--00-1
-0---0-0---01-0----0----0000-
----0-0---0-00-200--1-221131-
-0-0-00--0-0-010200-0--0000-0
0-0-00-10-0-0-00200-01--40-1-
---00-20-0-0---000-0-000--0--
0-00231-0-0---0-0-0----0-----
-0000--020---0-0-----0--0-0--
-011---222--0-0---0-0-0----0-
0-00----0-2--0---0-0-0-0---00
-0--0---10-2----0-0-0-0-0-0-0
0----0-0-00-2000-0---0-0---0-
--------0-001--00-----0------

Generation = 14, Population = 172.
0-0-1-------2-1-5---2-3-2-3-0
-0011----5--42-4--13415----75
--0---2---3-0-3---1---2-0-1--
-01010--2-0--4123-2--32511--2
--2-0-----2-1---1---2---0----
0----010-22-2-3--33-4--723---
0---1---0-----3---2---0-0----
00------1--4311-5---1-4-4-333
1-0-1-------1---1---0-2---1--
--01---2--2--41-422--2-51--2-
0-2---1-3-1-0-2---0-1---0----
----1----2--12--0-1--2-312---
0---3-0-----0-1-1-1---0------
---1--2------000-2--1-0--02-2
--0-0---------1-----1--------
-0-2-0---0-2----10--11-2-102-

*** Life<FredkinCell> 10x28 ***

Generation = 0, Population = 22.
------0------------0--------
-0--0-----------------------
----0-----------------------
--0------------0------------
----0--00-------------------
-----0--------0-------------
----------------------------
-------0--------0---0-------
0-0-0-0---------------------
--------0-----0----0--------

Generation = 6, Population = 111.
--0-10-200--00-1-0-0-0-0-0--
------30--100------10-------
1-103-224--10--0-0-2-0-0----
--1-02--101--12--113-10-----
-1---0--42---11--0-0-0------
0--1--0---301-12-1--10--0---
0-202-110-111------0--------
11--1-003------1---331-1--0-
-----02-11--0---------------
----0-1--1-0-0---001121010--

Generation = 12, Population = 96.
----3-----------0-0----1-0--
1-2--0-2-1-----2---31-00----
--20--3-----2-1-2--2-------0
---023----5-------1----11--1
1-5-1-444-------2---1------0
-0122-6---3----3-2135-3-1-00
----3--41-3-1--1-------1----
2---3-11-2--5-4---1-3-02---2
---02-333--1------10---0----
-0--------22-12-5-22--11211-

Generation = 18, Population = 116.
10-57--5-21--------2-4230---
21---0---3-4-0---3-------1--
--615-----3-4-----1322-00---
5--1---2645-31-12--65--4--11
----325-633-4----2075----11-
--4-4-746-61--5--32--2---1--
------644---4-3-5218-2051---
4----21-73----55--44-32-421-
2---3---5----------0--1-0---
------853---3366-4-2-24-4---

Generation = 24, Population = 122.
1--8----2-31-3-21-142-3---13
---32-45--+-------34-2-1-2--
3-9-9-4+7---5-3---474--04---
-4-4----8681---3379+955641-5
2---6-7-+--3--2-------3-61-4
--8----68-63---84-8----44---
5--25-768-567------8-43----2
8----43-9-----6+3--5-4---25-
4--2--5-7-----7-5-51-0-4----
7-35-------346-7-4-4---884-0

Generation = 30, Population = 129.
---+-4683-3-0424-22-3-4-4--5
-4--6-5--4-46----4--4-----3-
34+---5-736-6--3--5+4-2-833-
--84+-2--882-3-64-+---984-17
4---837-+-63---142---1548---
5-9-6----6-7------+--+-----2
-288--7-------5-7--9245---4-
---3-5-4------7-3-5-5-5-+-9-
-2-63-789-654-+6---33---3---
8--57--96-946--8-63--5-+--32

Generation = 36, Population = 119.
235-+----84---3533--5--5----
--+461-+5--5------556-86----
5-+--6-+--76----8-5---4---9-
--96-8--++--64++69-++--+5-1-
--+5+6--+----5--7-3--1-----7
6---94-6+9--7--+6-+-8+5---3-
8-98--8----9+-------3-----5-
+----5-5-5--+5-+5-6-65-----6
5-8---+9--7---+6-9-6--8-6---
81----+9-4----7++947---+-64-

Generation = 42, Population = 134.
--7-+-+--+-4-5-6-4----887-4-
-9-58-9--6-6----4--78----3-4
75-7-7-+9---9366--6--5--94+-
5+-7+--8-+-57-+-8---+----2-+
8---+7+9+---+--47-4-72888---
76+-+--9----86-+-4-59+7-54--
9-++--8-+5------+--+---7---2
++-7-5--+5-7--+-84-86----5+-
--89----+4887-+---+9-3--+-53
9---9+-98--+--8--+87968-+7--

*** Life<FredkinCell> 62x48 ***

Generation = 0, Population = 29.
------------------------------------------------
------------------------------------------------
----------------------0-------------------------
------------------------------------------------
------------------------------------------------
------------------------------------------------
--------0---------------------------------------
------------------------------------0-----------
------------------------------------------------
-------------------0-----------0----------------
---0--------------------------------------0-----
-----------------------------------0------------
------------------------------------------------
------------------------------------------------
------------------------------------------------
------------------------------------------------
------------------------------------------------
------------------------------------------------
-------------------------------------------0----
------------------------------------------------
------------------------------------------0-----
------------------------------------------------
------------------------------------------------
------------------------------------------------
------------------------------------------------
------------------------------------------------
-------------------------0----------------------
----------------------------------------0-------
------------------------------------------------
------------------------------------------------
------------------------------------------------
------------------------------------------------
-----------------------------0------------------
------------------------------------------------
------------------------------------------------
-----------------------------------0------------
------------------------------------------------
------------------------------------------0-----
------0-----------------------------------------
------------------------------------------------
------------------------------------------------
------------------------------------------------
------------------------------------------------
------------------------------------------0-----
------------------------------------------0-----
--0--------------------0------------------------
------------------------------------------------
------------------------------------------------
------------------------------------------------
---------------------------0--------------------
----------------0-------------------------------
------------------------------------------------
-----------------------------------0--0---------
------------------------------------------------
------------------------------------------------
-------------0------------------0---------------
------------------------------------------------
------------------------------------------0-----
------------------------------------------------
------------------0-----------------------------
------------------------------------------------
------------------------0-----------------------

Generation = 4, Population = 111.
----------------------0-------------------------
------------------------------------------------
--------0---------0-------0---------------------
------------------------------------0-----------
------------------------------------------------
-------------------0-----------0----------------
---00-------0---------0-------------------0-----
--------------------------------1--1----0-------
------------------------------------------------
---------------0-------0---0-------2------------
-------00-----------------------------0-------0-
-------------------------------0----1--0--------
------------------------------------------------
-------------------0-----------0----------------
---0--------------------------------------00----
-----------------------------------0------------
------------------------------------------1-----
------------------------------------------------
---------------------------------------0-------0
------------------------------------------------
--------------------------------------0-------0-
------------------------------------------------
-------------------------0-----------------1----
----------------------------------------0-------
------------------------------------------0-----
------------------------------------------------
---------------------0-------0------------------
------------------------------------0-------0---
-----------------------------0------------------
------------------------------------------------
-------------------------0----------------------
-----------------------------------0----0-------
-------------------------0-------0--------------
------------------------------------------0-----
------0-----------------------------------------
-------------------------------0-------0--------
-----------------------------0------------------
--------------------------------------0-------0-
--0-------0-------------------------------------
-----------------------------------0------0-----
------------------------------------------0-----
--0--------------------0------------------2-----
------0-----------------------------------------
--------------------------------------0-------0-
--------------------------------------0-------0-
0-----0------------0----------------------------
----------------0-------------------------------
------------------------------------------1-----
-----------------------------------0--0---0-----
--0----------------------------0----------------
------------0-------0---------------------------
-------------0------------------0---------------
-------------------------------0--1----1--0-----
---------------------------0--------------0-----
----------------0-------------------------------
---------0-------00---------0-------0-----------
-----------------------------------0--0---------
------------------------0-------------0-------0-
------------------------------------------------
-------------00-------0-0-------0---------------
------------------------------------------------
------------------0-0-------0-------------0-----

*** Life<FredkinCell> 37x14 ***

Generation = 0, Population = 7.
--------------
--------0-----
--------------
--------------
--------------
--------------
--------------
-0-----0------
--------------
--------------
--------------
--------------
---0----------
--------------
--------------
--------------
--------------
----0---------
--------------
--------------
--------------
--0-----------
--------------
--------------
--------------
--------------
--------------
--------------
--------------
--------------
--------------
--------------
--------------
-----0--------
--------------
--------------
--------------

Generation = 6, Population = 78.
--------------
-00----1------
--------------
---000---0--0-
--------------
---0-001--00--
---1----------
-0---0-000---0
-1---1--------
---1-0-0---0--
---0---1------
---000---0----
-----0---0----
-00---01------
---0---0------
0-0-0---0-----
-0---0--------
--0-0-0---0---
---0----------
--0-0-0-0-----
--------------
0---0-0-0-----
--------------
0-0-0-0-------
--------------
0---0---------
--------------
--0--0--------
--------------
---0---0------
--------------
-0---0---0----
--------------
---0---0---0--
--------------
-0-------0----
--------------

Generation = 12, Population = 69.
---0----------
1-1-0---------
--------------
-----2---1---1
-------0------
0-------3-----
--------------
-1---3-----0-0
-----------0--
0-0-1-------1-
--------------
-1---0-2-1---1
-------------0
2-3-0-2-1---0-
--------------
-1-2-0-----0--
-----------0--
2-1-0-1-1-0-0-
--------------
-0-----0------
-------0------
0-0-000-0---0-
--------------
--------------
---1----------
012-2---100---
--------------
--------------
--------------
01--0-0------0
--------------
--------------
--------------
--0--0-----0--
--------------
--------------
--------------

*** Life<FredkinCell> 32x1 ***

Generation = 0, Population = 16.
-
0
0
0
-
-
0
-
0
-
-
-
0
-
0
-
0
-
0
0
-
-
-
0
-
-
0
0
0
0
0
-

Generation = 4, Population = 18.
3
4
0
-
0
3
2
0
0
-
-
-
-
-
0
0
1
-
4
1
1
-
-
-
1
0
4
2
-
-
-
-

Generation = 8, Population = 16.
-
-
-
2
-
3
2
-
2
1
-
-
-
-
4
1
2
-
5
2
-
3
-
-
3
-
-
-
1
3
3
2

*** Life<FredkinCell> 16x43 ***

Generation = 0, Population = 3.
-------------------------------------------
-------------------------------------------
-------------------------------------------
---------0---------------------------------
-------------------------------------------
-------------------------------------------
------------------------------------------0
-------------------------------------------
-------------------------------------------
-------------------------------------------
-------------------------------------------
-------------------------------------------
-------------------------------------------
-------------------------------------------
-------------------------------------------
---------------0---------------------------

Generation = 9, Population = 39.
-----------------------------------------0-
------------------------------------------0
-0-------0-------0-------------------------
0-0-----0-0-----0-0------------------------
-0-------0-------0-------------------------
----------------------------------0-0------
---------------0-----------------0---0-----
--------------0-0-----------------0-0------
-------------------------------------------
--------------0-0--------------------------
---------0-----0---------------------------
--------0-0--------------------------------
---------0---------------------------------
------------------------------------------0
-------0---------------0-----------------0-
------0-0-------------0-0-----------------0

Generation = 18, Population = 35.
-------------------------------------------
-----0-------0---0-------0-----------------
-------------------------------------------
---0---0-------0-------0---0---------------
--------------------------0-0--------------
-----0-------------------0-----------------
------------------------0-0-0-0-----------0
-------------------------------------------
--------------------------0-0-----------0--
---------0---------------------------------
----------------------------------------0--
-------0-0-0-------------------------------
------------------------------------------0
-------0-0-0-------------------0-----------
-------------------------------------------
---------0-------------------0-0-0---------

*** Life<FredkinCell> 40x16 ***

Generation = 0, Population = 1.
----------------
----------------
----------------
----------------
----------------
----------------
----------------
----------------
----------------
----------------
----------------
----------------
----------------
----------------
----------------
----------------
----------------
----------------
----------------
----------------
----------------
----------------
----------------
----------------
----------------
----------------
----------------
----------------
----------------
----------------
----------------
----------------
----------------
----------------
----------------
------------0---
----------------
----------------
----------------
----------------

Generation = 8, Population = 4.
----------------
----------------
----------------
----------------
----------------
----------------
----------------
----------------
----------------
----------------
----------------
----------------
----------------
----------------
----------------
----------------
----------------
----------------
----------------
----------------
----------------
----------------
----------------
----------------
----------------
----------------
----------------
------------0---
----------------
----------------
----------------
----------------
----------------
----------------
----------------
----0-------0---
----------------
------------0---
----------------
----------------

Generation = 16, Population = 4.
----------------
----------------
----------------
----------------
----------------
----------------
----------------
----------------
----------------
----------------
----------------
----------------
----------------
----------------
----------------
----------------
----------------
----------------
----------------
------------0---
----------------
----------------
----------------
----------------
----------------
----------------
----------------
----------------
----------------
------------0---
----------------
----------------
----------------
----------------
----------------
--0-0-----------
----------------
----------------
----------------
----------------

Generation = 24, Population = 16.
----------------
----------------
----------------
----------------
----------------
----------------
----------------
----------------
----------------
----------------
----------------
------------0---
----------------
----------------
----------------
----------------
----------------
----------------
----------------
----0-------0---
----------------
------------0---
----------------
----------------
----------------
----------------
----------------
--0-0-------0---
----------------
----0-------0---
----------------
----------------
----------------
----------------
----------------
--0-0-----0-0---
----------------
--0-0-------0---
----------------
----------------
